,sample_size,n_bins,iteration,lambda
0,1000.0,10.0,0,0.9494935692259838
1,1000.0,10.0,1,1.0751995954807134
2,1000.0,10.0,2,0.9802173453939897
3,1000.0,10.0,3,1.0131710562967722
4,1000.0,10.0,4,0.9204002049662089
5,1000.0,10.0,5,0.9835294628746105
6,1000.0,10.0,6,0.9523315941163467
7,1000.0,10.0,7,0.9686819360393376
8,1000.0,10.0,8,0.9887858876398813
9,1000.0,10.0,9,0.9674582609461726
10,1000.0,10.263157894736842,0,0.9540429905465652
11,1000.0,10.263157894736842,1,0.9646061178769421
12,1000.0,10.263157894736842,2,0.9872597139215504
13,1000.0,10.263157894736842,3,1.0220675709391247
14,1000.0,10.263157894736842,4,0.9761310187995644
15,1000.0,10.263157894736842,5,1.0019981058925131
16,1000.0,10.263157894736842,6,0.8980033503943706
17,1000.0,10.263157894736842,7,1.051440493821376
18,1000.0,10.263157894736842,8,0.9597082328345914
19,1000.0,10.263157894736842,9,1.1406294715287957
20,1000.0,10.526315789473685,0,0.9604342420196198
21,1000.0,10.526315789473685,1,1.0438932630919027
22,1000.0,10.526315789473685,2,0.9214959679421892
23,1000.0,10.526315789473685,3,0.9676876239359153
24,1000.0,10.526315789473685,4,0.9580259199998913
25,1000.0,10.526315789473685,5,0.9639127023234001
26,1000.0,10.526315789473685,6,0.9980762905763897
27,1000.0,10.526315789473685,7,0.9823134175791165
28,1000.0,10.526315789473685,8,0.943655343939365
29,1000.0,10.526315789473685,9,0.9601121391192471
30,1000.0,10.789473684210526,0,0.9962911012784024
31,1000.0,10.789473684210526,1,1.029683761099416
32,1000.0,10.789473684210526,2,1.035275053206047
33,1000.0,10.789473684210526,3,1.0571781667416817
34,1000.0,10.789473684210526,4,0.894949881462625
35,1000.0,10.789473684210526,5,1.0257951725803696
36,1000.0,10.789473684210526,6,0.951417001707967
37,1000.0,10.789473684210526,7,1.1206913092096946
38,1000.0,10.789473684210526,8,0.9822101885849434
39,1000.0,10.789473684210526,9,1.0255286272402055
40,1000.0,11.052631578947368,0,0.9302814772276384
41,1000.0,11.052631578947368,1,0.9648140445046551
42,1000.0,11.052631578947368,2,1.0423129196600163
43,1000.0,11.052631578947368,3,0.9644138876399404
44,1000.0,11.052631578947368,4,1.005215634766292
45,1000.0,11.052631578947368,5,0.984162565971511
46,1000.0,11.052631578947368,6,0.9540098861292787
47,1000.0,11.052631578947368,7,0.9595407707610506
48,1000.0,11.052631578947368,8,0.9834484474141121
49,1000.0,11.052631578947368,9,1.0212342134473658
50,1000.0,11.31578947368421,0,1.032234733846425
51,1000.0,11.31578947368421,1,1.0344727237232736
52,1000.0,11.31578947368421,2,0.892727066361106
53,1000.0,11.31578947368421,3,1.005756605837333
54,1000.0,11.31578947368421,4,0.9559986612512508
55,1000.0,11.31578947368421,5,1.1531866781780624
56,1000.0,11.31578947368421,6,0.9575220662247745
57,1000.0,11.31578947368421,7,1.0339695875583452
58,1000.0,11.31578947368421,8,0.9115796666032866
59,1000.0,11.31578947368421,9,0.9890871598397333
60,1000.0,11.578947368421053,0,0.9578175114501977
61,1000.0,11.578947368421053,1,0.9568937283799224
62,1000.0,11.578947368421053,2,1.0047151377496804
63,1000.0,11.578947368421053,3,0.9941733337029847
64,1000.0,11.578947368421053,4,0.9494548146691549
65,1000.0,11.578947368421053,5,0.9559029946312214
66,1000.0,11.578947368421053,6,0.99823320421728
67,1000.0,11.578947368421053,7,1.0272913347014956
68,1000.0,11.578947368421053,8,1.0262324018037776
69,1000.0,11.578947368421053,9,1.021907784106639
70,1000.0,11.842105263157894,0,0.8945552142055797
71,1000.0,11.842105263157894,1,1.041728905532731
72,1000.0,11.842105263157894,2,0.9620044813756518
73,1000.0,11.842105263157894,3,1.148537604931628
74,1000.0,11.842105263157894,4,0.9591683809250079
75,1000.0,11.842105263157894,5,1.0355818932560419
76,1000.0,11.842105263157894,6,0.9157757628495883
77,1000.0,11.842105263157894,7,1.005981086315236
78,1000.0,11.842105263157894,8,1.0383817067598773
79,1000.0,11.842105263157894,9,0.9588831086567844
80,1000.0,12.105263157894736,0,1.0101202346590548
81,1000.0,12.105263157894736,1,1.0024978206268593
82,1000.0,12.105263157894736,2,0.9591351153654168
83,1000.0,12.105263157894736,3,0.9685710519659515
84,1000.0,12.105263157894736,4,0.9912294938664911
85,1000.0,12.105263157894736,5,1.0291984996444261
86,1000.0,12.105263157894736,6,1.0219514493593387
87,1000.0,12.105263157894736,7,1.0498070585077746
88,1000.0,12.105263157894736,8,0.8958193094726217
89,1000.0,12.105263157894736,9,1.0545553668023968
90,1000.0,12.368421052631579,0,0.9693769011141713
91,1000.0,12.368421052631579,1,1.1443589535597338
92,1000.0,12.368421052631579,2,0.9582982501963881
93,1000.0,12.368421052631579,3,1.0139231681231102
94,1000.0,12.368421052631579,4,0.9327739641311894
95,1000.0,12.368421052631579,5,1.0066254098065142
96,1000.0,12.368421052631579,6,0.9778672003719691
97,1000.0,12.368421052631579,7,0.9636680607179159
98,1000.0,12.368421052631579,8,0.9970747688490705
99,1000.0,12.368421052631579,9,0.9921195925804119
100,1000.0,12.631578947368421,0,0.9640880106387635
101,1000.0,12.631578947368421,1,0.970248625827548
102,1000.0,12.631578947368421,2,0.9791036633199509
103,1000.0,12.631578947368421,3,1.0198088024769507
104,1000.0,12.631578947368421,4,1.0154612065068385
105,1000.0,12.631578947368421,5,1.015124761789488
106,1000.0,12.631578947368421,6,0.8947354988368882
107,1000.0,12.631578947368421,7,1.0396419161093982
108,1000.0,12.631578947368421,8,0.9600027943346997
109,1000.0,12.631578947368421,9,1.0560119520185658
110,1000.0,12.894736842105264,0,0.9970704411196961
111,1000.0,12.894736842105264,1,1.0538578343365617
112,1000.0,12.894736842105264,2,0.9125038347740944
113,1000.0,12.894736842105264,3,0.9842819549552567
114,1000.0,12.894736842105264,4,0.9837275183313473
115,1000.0,12.894736842105264,5,0.9677534277780478
116,1000.0,12.894736842105264,6,1.012223921877056
117,1000.0,12.894736842105264,7,0.9986363778976666
118,1000.0,12.894736842105264,8,0.9628161755433949
119,1000.0,12.894736842105264,9,0.9633347186482075
120,1000.0,13.157894736842106,0,0.9927698849835284
121,1000.0,13.157894736842106,1,1.0523120711682266
122,1000.0,13.157894736842106,2,1.0261201668394477
123,1000.0,13.157894736842106,3,1.0541593244090002
124,1000.0,13.157894736842106,4,0.8965267996594319
125,1000.0,13.157894736842106,5,1.0214314369779116
126,1000.0,13.157894736842106,6,0.9768220995031549
127,1000.0,13.157894736842106,7,1.0617870128878615
128,1000.0,13.157894736842106,8,0.9777482999831304
129,1000.0,13.157894736842106,9,1.0461513326147498
130,1000.0,13.421052631578947,0,0.9245498533456387
131,1000.0,13.421052631578947,1,0.9767989659219173
132,1000.0,13.421052631578947,2,0.9980714003984094
133,1000.0,13.421052631578947,3,0.9539786179746931
134,1000.0,13.421052631578947,4,0.9984957421955137
135,1000.0,13.421052631578947,5,1.0002303901475436
136,1000.0,13.421052631578947,6,0.9618535509152473
137,1000.0,13.421052631578947,7,0.9740979679085824
138,1000.0,13.421052631578947,8,0.9870811007363249
139,1000.0,13.421052631578947,9,1.023255938148007
140,1000.0,13.68421052631579,0,1.01814667799755
141,1000.0,13.68421052631579,1,1.0474956413323904
142,1000.0,13.68421052631579,2,0.9017219636402355
143,1000.0,13.68421052631579,3,1.0395336805963422
144,1000.0,13.68421052631579,4,0.9719240608804507
145,1000.0,13.68421052631579,5,1.078436661671418
146,1000.0,13.68421052631579,6,0.980875284210229
147,1000.0,13.68421052631579,7,1.0359384786820092
148,1000.0,13.68421052631579,8,0.936400308254122
149,1000.0,13.68421052631579,9,0.9782132882681311
150,1000.0,13.947368421052632,0,1.013052285009135
151,1000.0,13.947368421052632,1,0.9699907578251494
152,1000.0,13.947368421052632,2,1.0073842538728097
153,1000.0,13.947368421052632,3,0.9970917786286603
154,1000.0,13.947368421052632,4,0.9670693009945603
155,1000.0,13.947368421052632,5,0.9803713773805862
156,1000.0,13.947368421052632,6,0.9888919860307062
157,1000.0,13.947368421052632,7,1.045470759987856
158,1000.0,13.947368421052632,8,1.0333520986710654
159,1000.0,13.947368421052632,9,1.0401636801274343
160,1000.0,14.210526315789473,0,0.9063121644207273
161,1000.0,14.210526315789473,1,1.0571094176797924
162,1000.0,14.210526315789473,2,0.9749915989787287
163,1000.0,14.210526315789473,3,1.0687906200041235
164,1000.0,14.210526315789473,4,0.9804251061391782
165,1000.0,14.210526315789473,5,1.0345010629834155
166,1000.0,14.210526315789473,6,0.924061278354612
167,1000.0,14.210526315789473,7,0.9895605989643975
168,1000.0,14.210526315789473,8,0.9838497525165084
169,1000.0,14.210526315789473,9,0.9549462550437653
170,1000.0,14.473684210526315,0,1.0041352064489626
171,1000.0,14.473684210526315,1,1.0010602669040647
172,1000.0,14.473684210526315,2,0.9664166054490897
173,1000.0,14.473684210526315,3,0.9796146488441795
174,1000.0,14.473684210526315,4,0.9914105069641349
175,1000.0,14.473684210526315,5,1.03114315176436
176,1000.0,14.473684210526315,6,1.01167126991894
177,1000.0,14.473684210526315,7,1.050783487754634
178,1000.0,14.473684210526315,8,0.9041674670359008
179,1000.0,14.473684210526315,9,1.0362474178588135
180,1000.0,14.736842105263158,0,0.9592703741700866
181,1000.0,14.736842105263158,1,1.0714425137257388
182,1000.0,14.736842105263158,2,0.9742004922482859
183,1000.0,14.736842105263158,3,1.0472291454854037
184,1000.0,14.736842105263158,4,0.9251629263238058
185,1000.0,14.736842105263158,5,1.0037691523775303
186,1000.0,14.736842105263158,6,1.0166836971102742
187,1000.0,14.736842105263158,7,0.9716621492794472
188,1000.0,14.736842105263158,8,1.0316267643972235
189,1000.0,14.736842105263158,9,0.9933001683619147
190,1000.0,15.0,0,0.9643938998865021
191,1000.0,15.0,1,0.9898209647400176
192,1000.0,15.0,2,0.9921939021025659
193,1000.0,15.0,3,1.0351098333335411
194,1000.0,15.0,4,1.0285827843464215
195,1000.0,15.0,5,1.0198942213781488
196,1000.0,15.0,6,0.9049058505615256
197,1000.0,15.0,7,1.0342226267844286
198,1000.0,15.0,8,0.965007632208306
199,1000.0,15.0,9,1.1322233142628806
200,2000.0,10.0,0,0.9639510384557587
201,2000.0,10.0,1,0.9851028956623284
202,2000.0,10.0,2,0.9836775595373249
203,2000.0,10.0,3,1.0137431418376872
204,2000.0,10.0,4,1.0211509526112663
205,2000.0,10.0,5,0.9898642755724001
206,2000.0,10.0,6,0.9448601991305701
207,2000.0,10.0,7,1.0034583755512612
208,2000.0,10.0,8,0.9773017586683894
209,2000.0,10.0,9,0.9384730280071133
210,2000.0,10.263157894736842,0,0.9871153714468149
211,2000.0,10.263157894736842,1,0.9748262715354129
212,2000.0,10.263157894736842,2,0.9588049969872385
213,2000.0,10.263157894736842,3,0.9638694929159318
214,2000.0,10.263157894736842,4,0.9913013123612924
215,2000.0,10.263157894736842,5,0.9538175458397883
216,2000.0,10.263157894736842,6,0.978461174008658
217,2000.0,10.263157894736842,7,0.967668764828442
218,2000.0,10.263157894736842,8,0.9900335022628662
219,2000.0,10.263157894736842,9,0.9968871843805064
220,2000.0,10.526315789473685,0,1.0133862699623848
221,2000.0,10.526315789473685,1,0.9943677148402151
222,2000.0,10.526315789473685,2,0.9965424947147522
223,2000.0,10.526315789473685,3,0.9504605532100222
224,2000.0,10.526315789473685,4,0.9926989900285184
225,2000.0,10.526315789473685,5,0.9809881604501305
226,2000.0,10.526315789473685,6,0.9277258728623712
227,2000.0,10.526315789473685,7,0.9808417853396107
228,2000.0,10.526315789473685,8,0.9575768759710185
229,2000.0,10.526315789473685,9,0.9655190395133302
230,2000.0,10.789473684210526,0,0.9802182122612003
231,2000.0,10.789473684210526,1,1.021022833958686
232,2000.0,10.789473684210526,2,0.9582176731405767
233,2000.0,10.789473684210526,3,0.9714703427008107
234,2000.0,10.789473684210526,4,0.978169400960057
235,2000.0,10.789473684210526,5,0.9691384186373314
236,2000.0,10.789473684210526,6,0.995959781686619
237,2000.0,10.789473684210526,7,0.9820249342082759
238,2000.0,10.789473684210526,8,1.0204387542830964
239,2000.0,10.789473684210526,9,1.01206493223714
240,2000.0,11.052631578947368,0,0.9924457991069554
241,2000.0,11.052631578947368,1,0.9462310483274299
242,2000.0,11.052631578947368,2,1.009635034402075
243,2000.0,11.052631578947368,3,0.9738845503284889
244,2000.0,11.052631578947368,4,0.9365271225107921
245,2000.0,11.052631578947368,5,0.9811624662127144
246,2000.0,11.052631578947368,6,0.9633374350185371
247,2000.0,11.052631578947368,7,0.9625585542873492
248,2000.0,11.052631578947368,8,0.9771342872787874
249,2000.0,11.052631578947368,9,0.9815961447936354
250,2000.0,11.31578947368421,0,0.9629809292194913
251,2000.0,11.31578947368421,1,0.9725251317889457
252,2000.0,11.31578947368421,2,0.9715821548527414
253,2000.0,11.31578947368421,3,0.9682483523545069
254,2000.0,11.31578947368421,4,1.0007146125699948
255,2000.0,11.31578947368421,5,1.0019193019242187
256,2000.0,11.31578947368421,6,1.01584431429165
257,2000.0,11.31578947368421,7,1.0059693446791829
258,2000.0,11.31578947368421,8,0.9920703253742972
259,2000.0,11.31578947368421,9,0.9474620014374758
260,2000.0,11.578947368421053,0,1.0011836841403385
261,2000.0,11.578947368421053,1,0.9768598601770904
262,2000.0,11.578947368421053,2,0.9338656618363684
263,2000.0,11.578947368421053,3,0.9807270446875596
264,2000.0,11.578947368421053,4,0.9589856180652655
265,2000.0,11.578947368421053,5,0.9722184372577674
266,2000.0,11.578947368421053,6,0.9792275279323
267,2000.0,11.578947368421053,7,0.980296275070951
268,2000.0,11.578947368421053,8,0.9639346587420244
269,2000.0,11.578947368421053,9,0.9633926563681067
270,2000.0,11.842105263157894,0,0.9752436574450569
271,2000.0,11.842105263157894,1,0.9716832653505764
272,2000.0,11.842105263157894,2,0.9886239706383
273,2000.0,11.842105263157894,3,1.0059697286195342
274,2000.0,11.842105263157894,4,1.021269823322987
275,2000.0,11.842105263157894,5,1.004576760933923
276,2000.0,11.842105263157894,6,1.0034299506448463
277,2000.0,11.842105263157894,7,0.9491453860916225
278,2000.0,11.842105263157894,8,1.01385675971697
279,2000.0,11.842105263157894,9,0.9775113672779884
280,2000.0,12.105263157894736,0,0.9387924958430323
281,2000.0,12.105263157894736,1,0.9846248626364673
282,2000.0,12.105263157894736,2,0.9691704408146518
283,2000.0,12.105263157894736,3,0.9715420446351464
284,2000.0,12.105263157894736,4,0.9865661221074654
285,2000.0,12.105263157894736,5,1.0024425449947505
286,2000.0,12.105263157894736,6,0.9598136835040705
287,2000.0,12.105263157894736,7,0.9744952918364063
288,2000.0,12.105263157894736,8,0.9816367626986705
289,2000.0,12.105263157894736,9,0.9730788575772863
290,2000.0,12.368421052631579,0,0.9889609605569514
291,2000.0,12.368421052631579,1,0.9877303400994322
292,2000.0,12.368421052631579,2,1.0088822567905071
293,2000.0,12.368421052631579,3,1.002734328730551
294,2000.0,12.368421052631579,4,1.002585503808992
295,2000.0,12.368421052631579,5,0.948135409171045
296,2000.0,12.368421052631579,6,1.0062296908937927
297,2000.0,12.368421052631579,7,0.9816752802529125
298,2000.0,12.368421052631579,8,0.9366576654211476
299,2000.0,12.368421052631579,9,0.9831008442978985
300,2000.0,12.631578947368421,0,0.9662032563905311
301,2000.0,12.631578947368421,1,0.9735329465901276
302,2000.0,12.631578947368421,2,0.9878140203043363
303,2000.0,12.631578947368421,3,0.992069445920323
304,2000.0,12.631578947368421,4,0.959232039281797
305,2000.0,12.631578947368421,5,0.976618298429252
306,2000.0,12.631578947368421,6,0.9837221122397116
307,2000.0,12.631578947368421,7,0.9701356413391273
308,2000.0,12.631578947368421,8,0.990271929887276
309,2000.0,12.631578947368421,9,0.9972528716666803
310,2000.0,12.894736842105264,0,1.0143827398595107
311,2000.0,12.894736842105264,1,1.0081752729253546
312,2000.0,12.894736842105264,2,1.0085620821213424
313,2000.0,12.894736842105264,3,0.9480735469626899
314,2000.0,12.894736842105264,4,1.009578797164665
315,2000.0,12.894736842105264,5,0.9798841804208843
316,2000.0,12.894736842105264,6,0.9371653477251348
317,2000.0,12.894736842105264,7,0.9845734727934092
318,2000.0,12.894736842105264,8,0.9667384782211992
319,2000.0,12.894736842105264,9,0.9640918371288063
320,2000.0,13.157894736842106,0,0.9824275485578837
321,2000.0,13.157894736842106,1,1.0074566774589422
322,2000.0,13.157894736842106,2,0.962072646473575
323,2000.0,13.157894736842106,3,0.9733376300330832
324,2000.0,13.157894736842106,4,0.975224321784782
325,2000.0,13.157894736842106,5,0.9749171927211356
326,2000.0,13.157894736842106,6,0.9921089798075164
327,2000.0,13.157894736842106,7,0.9938241560480028
328,2000.0,13.157894736842106,8,1.0247740422684521
329,2000.0,13.157894736842106,9,1.0060996261843858
330,2000.0,13.421052631578947,0,1.0059834737647522
331,2000.0,13.421052631578947,1,0.949301936370413
332,2000.0,13.421052631578947,2,1.0061952332770097
333,2000.0,13.421052631578947,3,0.9784234894623919
334,2000.0,13.421052631578947,4,0.9397470580752154
335,2000.0,13.421052631578947,5,0.9838895782828684
336,2000.0,13.421052631578947,6,0.9667118073782968
337,2000.0,13.421052631578947,7,0.962835177678323
338,2000.0,13.421052631578947,8,0.9814801323820084
339,2000.0,13.421052631578947,9,0.9912784224487761
340,2000.0,13.68421052631579,0,0.9646650915458258
341,2000.0,13.68421052631579,1,0.978768261280679
342,2000.0,13.68421052631579,2,0.9773727137388768
343,2000.0,13.68421052631579,3,0.9720352490096476
344,2000.0,13.68421052631579,4,0.9984579843785855
345,2000.0,13.68421052631579,5,0.9938261656408701
346,2000.0,13.68421052631579,6,1.0276934334412706
347,2000.0,13.68421052631579,7,1.0120778007797218
348,2000.0,13.68421052631579,8,0.9967474235619173
349,2000.0,13.68421052631579,9,0.9519241196360247
350,2000.0,13.947368421052632,0,1.0119046078456264
351,2000.0,13.947368421052632,1,0.9832173725296846
352,2000.0,13.947368421052632,2,0.9369521130659754
353,2000.0,13.947368421052632,3,0.9830838075714521
354,2000.0,13.947368421052632,4,0.9675574090737279
355,2000.0,13.947368421052632,5,0.9694590816477746
356,2000.0,13.947368421052632,6,0.9966237928549778
357,2000.0,13.947368421052632,7,1.000356277992334
358,2000.0,13.947368421052632,8,0.9626021257509998
359,2000.0,13.947368421052632,9,0.971297918662178
360,2000.0,14.210526315789473,0,0.9824183454691022
361,2000.0,14.210526315789473,1,0.9768354412277983
362,2000.0,14.210526315789473,2,0.9933011393336206
363,2000.0,14.210526315789473,3,1.00059474294743
364,2000.0,14.210526315789473,4,1.0116313525768816
365,2000.0,14.210526315789473,5,1.0159249034582796
366,2000.0,14.210526315789473,6,1.0083265460499098
367,2000.0,14.210526315789473,7,0.9481423627115712
368,2000.0,14.210526315789473,8,1.0148607075961724
369,2000.0,14.210526315789473,9,0.9769284068975618
370,2000.0,14.473684210526315,0,0.9426938927576163
371,2000.0,14.473684210526315,1,0.9884783352204705
372,2000.0,14.473684210526315,2,0.9711020264067445
373,2000.0,14.473684210526315,3,0.9667894802292769
374,2000.0,14.473684210526315,4,0.9779349946323163
375,2000.0,14.473684210526315,5,0.9963154109441527
376,2000.0,14.473684210526315,6,0.9745790862276249
377,2000.0,14.473684210526315,7,0.9769041503471607
378,2000.0,14.473684210526315,8,0.9883110198222237
379,2000.0,14.473684210526315,9,0.9684222782973433
380,2000.0,14.736842105263158,0,0.9951948319094359
381,2000.0,14.736842105263158,1,0.9953500061481328
382,2000.0,14.736842105263158,2,1.0227815739019097
383,2000.0,14.736842105263158,3,1.0193833665700491
384,2000.0,14.736842105263158,4,1.0092118498075395
385,2000.0,14.736842105263158,5,0.9474552190574335
386,2000.0,14.736842105263158,6,1.013550218898023
387,2000.0,14.736842105263158,7,0.9855593197645173
388,2000.0,14.736842105263158,8,0.9390332854371852
389,2000.0,14.736842105263158,9,0.9859514341160768
390,2000.0,15.0,0,0.9722219129635431
391,2000.0,15.0,1,0.9711656753145332
392,2000.0,15.0,2,0.9973285950170835
393,2000.0,15.0,3,1.0026961411844142
394,2000.0,15.0,4,0.9580296799051161
395,2000.0,15.0,5,0.9791035150354872
396,2000.0,15.0,6,0.9839960324843904
397,2000.0,15.0,7,0.9704796794938666
398,2000.0,15.0,8,0.9954864193041042
399,2000.0,15.0,9,0.990324100770603
400,3000.0,10.0,0,0.9795852392833361
401,3000.0,10.0,1,1.016157107776693
402,3000.0,10.0,2,0.9677858457347509
403,3000.0,10.0,3,0.9602945743031379
404,3000.0,10.0,4,0.96114960235741
405,3000.0,10.0,5,0.9682028149350601
406,3000.0,10.0,6,0.976586177394192
407,3000.0,10.0,7,0.9528145413973169
408,3000.0,10.0,8,1.0013887109903408
409,3000.0,10.0,9,0.975129311479978
410,3000.0,10.263157894736842,0,0.9981593944387872
411,3000.0,10.263157894736842,1,0.9779633465438032
412,3000.0,10.263157894736842,2,0.9977986282853748
413,3000.0,10.263157894736842,3,0.9707789556950328
414,3000.0,10.263157894736842,4,0.9910487188990114
415,3000.0,10.263157894736842,5,0.961217438286766
416,3000.0,10.263157894736842,6,0.9935533233964472
417,3000.0,10.263157894736842,7,0.9535705758556694
418,3000.0,10.263157894736842,8,1.0138753224379318
419,3000.0,10.263157894736842,9,1.0080107135087994
420,3000.0,10.526315789473685,0,0.9774584093400673
421,3000.0,10.526315789473685,1,0.9545946155311642
422,3000.0,10.526315789473685,2,0.9534177060154196
423,3000.0,10.526315789473685,3,0.9550483215654655
424,3000.0,10.526315789473685,4,0.9696695395547789
425,3000.0,10.526315789473685,5,1.0036688936929115
426,3000.0,10.526315789473685,6,0.9816489815277785
427,3000.0,10.526315789473685,7,0.9696614351483338
428,3000.0,10.526315789473685,8,0.9330480404924514
429,3000.0,10.526315789473685,9,0.9756380328661556
430,3000.0,10.789473684210526,0,0.9955367782574146
431,3000.0,10.789473684210526,1,0.9878211256082847
432,3000.0,10.789473684210526,2,1.0032433859657828
433,3000.0,10.789473684210526,3,0.9555389811805486
434,3000.0,10.789473684210526,4,0.9960053230651686
435,3000.0,10.789473684210526,5,0.9495319559211671
436,3000.0,10.789473684210526,6,1.0306052056273975
437,3000.0,10.789473684210526,7,1.0074487762099404
438,3000.0,10.789473684210526,8,0.9725401403814425
439,3000.0,10.789473684210526,9,0.9589037179307671
440,3000.0,11.052631578947368,0,0.9515019489265042
441,3000.0,11.052631578947368,1,0.9544420088413268
442,3000.0,11.052631578947368,2,0.9752057557720498
443,3000.0,11.052631578947368,3,1.0004505225159497
444,3000.0,11.052631578947368,4,0.9774544103532999
445,3000.0,11.052631578947368,5,0.9681855666805188
446,3000.0,11.052631578947368,6,0.9350268446558667
447,3000.0,11.052631578947368,7,0.9811933783967892
448,3000.0,11.052631578947368,8,0.9897849265615299
449,3000.0,11.052631578947368,9,0.9963573188938845
450,3000.0,11.31578947368421,0,1.0003712448849746
451,3000.0,11.31578947368421,1,0.9750648470952451
452,3000.0,11.31578947368421,2,1.0039678883968515
453,3000.0,11.31578947368421,3,0.9469865584709283
454,3000.0,11.31578947368421,4,1.0272600450091613
455,3000.0,11.31578947368421,5,1.0086235887195858
456,3000.0,11.31578947368421,6,0.9809000430000634
457,3000.0,11.31578947368421,7,0.9561809871658037
458,3000.0,11.31578947368421,8,0.9523395167049047
459,3000.0,11.31578947368421,9,0.9559703438846817
460,3000.0,11.578947368421053,0,0.9704137407297869
461,3000.0,11.578947368421053,1,0.9988316008538382
462,3000.0,11.578947368421053,2,0.9801655530108642
463,3000.0,11.578947368421053,3,0.9801178955281357
464,3000.0,11.578947368421053,4,0.9348740991055415
465,3000.0,11.578947368421053,5,0.9883824188961455
466,3000.0,11.578947368421053,6,0.9893663686112781
467,3000.0,11.578947368421053,7,1.0019735398493859
468,3000.0,11.578947368421053,8,1.00304281444511
469,3000.0,11.578947368421053,9,0.9745423707621433
470,3000.0,11.842105263157894,0,1.0004450480534477
471,3000.0,11.842105263157894,1,0.9533140952162512
472,3000.0,11.842105263157894,2,1.0289538617007254
473,3000.0,11.842105263157894,3,1.0057262731187915
474,3000.0,11.842105263157894,4,0.974413186060544
475,3000.0,11.842105263157894,5,0.960216495703835
476,3000.0,11.842105263157894,6,0.957306634491526
477,3000.0,11.842105263157894,7,0.9641117408787078
478,3000.0,11.842105263157894,8,0.9781803290485577
479,3000.0,11.842105263157894,9,1.008323137189211
480,3000.0,12.105263157894736,0,0.9869394811459793
481,3000.0,12.105263157894736,1,0.9744372076588086
482,3000.0,12.105263157894736,2,0.9352940012618068
483,3000.0,12.105263157894736,3,0.9861037387101962
484,3000.0,12.105263157894736,4,0.9947381982725518
485,3000.0,12.105263157894736,5,0.9972213194328247
486,3000.0,12.105263157894736,6,1.006033145963748
487,3000.0,12.105263157894736,7,0.9646451581627372
488,3000.0,12.105263157894736,8,1.0018931118027716
489,3000.0,12.105263157894736,9,0.9524845478113675
490,3000.0,12.368421052631579,0,1.025683651541422
491,3000.0,12.368421052631579,1,1.0044240828806108
492,3000.0,12.368421052631579,2,0.978911294747894
493,3000.0,12.368421052631579,3,0.9650006879333367
494,3000.0,12.368421052631579,4,0.9540269188935113
495,3000.0,12.368421052631579,5,0.9506360358608462
496,3000.0,12.368421052631579,6,0.9751947210175668
497,3000.0,12.368421052631579,7,1.0119347992389105
498,3000.0,12.368421052631579,8,0.9834531881547623
499,3000.0,12.368421052631579,9,0.9779669660633674
500,3000.0,12.631578947368421,0,0.9337419954627013
501,3000.0,12.631578947368421,1,0.9871743573876045
502,3000.0,12.631578947368421,2,0.9935612320515402
503,3000.0,12.631578947368421,3,0.9968005428732902
504,3000.0,12.631578947368421,4,0.9737216001228914
505,3000.0,12.631578947368421,5,0.9574338312019636
506,3000.0,12.631578947368421,6,0.9533646468204147
507,3000.0,12.631578947368421,7,0.9617097663435838
508,3000.0,12.631578947368421,8,0.9749388627058722
509,3000.0,12.631578947368421,9,1.001127459477774
510,3000.0,12.894736842105264,0,0.9826434087467938
511,3000.0,12.894736842105264,1,0.9790860808124675
512,3000.0,12.894736842105264,2,0.9307461033583355
513,3000.0,12.894736842105264,3,0.9829036678188056
514,3000.0,12.894736842105264,4,0.994814868356674
515,3000.0,12.894736842105264,5,0.9998401253484408
516,3000.0,12.894736842105264,6,0.9484513001066021
517,3000.0,12.894736842105264,7,0.9583281890308639
518,3000.0,12.894736842105264,8,0.9874192375711258
519,3000.0,12.894736842105264,9,0.9929713379010555
520,3000.0,13.157894736842106,0,1.0309223219805737
521,3000.0,13.157894736842106,1,0.9941530037064291
522,3000.0,13.157894736842106,2,0.9838305413111261
523,3000.0,13.157894736842106,3,0.961997552338547
524,3000.0,13.157894736842106,4,0.9529507130324935
525,3000.0,13.157894736842106,5,0.9514425148007821
526,3000.0,13.157894736842106,6,0.9791479663439389
527,3000.0,13.157894736842106,7,1.0044637201258124
528,3000.0,13.157894736842106,8,0.9844169779453149
529,3000.0,13.157894736842106,9,0.9743064664094959
530,3000.0,13.421052631578947,0,0.934399208107155
531,3000.0,13.421052631578947,1,0.9850717702142048
532,3000.0,13.421052631578947,2,0.9937414009207686
533,3000.0,13.421052631578947,3,0.995903129809398
534,3000.0,13.421052631578947,4,0.9489953622610225
535,3000.0,13.421052631578947,5,0.951485748530946
536,3000.0,13.421052631578947,6,0.9868616389288554
537,3000.0,13.421052631578947,7,0.9835000054362224
538,3000.0,13.421052631578947,8,1.0234342459677634
539,3000.0,13.421052631578947,9,0.9941198217123032
540,3000.0,13.68421052631579,0,0.9813083604613322
541,3000.0,13.68421052631579,1,0.9634616522985492
542,3000.0,13.68421052631579,2,0.9545886758080228
543,3000.0,13.68421052631579,3,0.9637089789157259
544,3000.0,13.68421052631579,4,0.9764711001586205
545,3000.0,13.68421052631579,5,1.0029957522505162
546,3000.0,13.68421052631579,6,0.9877949989377348
547,3000.0,13.68421052631579,7,0.9808110250404186
548,3000.0,13.68421052631579,8,0.9330675459141179
549,3000.0,13.68421052631579,9,0.9837519166886844
550,3000.0,13.947368421052632,0,0.9956250784136792
551,3000.0,13.947368421052632,1,0.9955288928579686
552,3000.0,13.947368421052632,2,0.9536454768699903
553,3000.0,13.947368421052632,3,0.9603833965666179
554,3000.0,13.947368421052632,4,0.9879618674763535
555,3000.0,13.947368421052632,5,0.9920858063930409
556,3000.0,13.947368421052632,6,1.0203082877201026
557,3000.0,13.947368421052632,7,1.0022613127908402
558,3000.0,13.947368421052632,8,0.9846238119818795
559,3000.0,13.947368421052632,9,0.9542471817074702
560,3000.0,14.210526315789473,0,0.9562472704627476
561,3000.0,14.210526315789473,1,0.9542092355490096
562,3000.0,14.210526315789473,2,0.9792817135500774
563,3000.0,14.210526315789473,3,1.0030019878356706
564,3000.0,14.210526315789473,4,0.9837412614324913
565,3000.0,14.210526315789473,5,0.9775008308156483
566,3000.0,14.210526315789473,6,0.9349675725246901
567,3000.0,14.210526315789473,7,0.9867326083815157
568,3000.0,14.210526315789473,8,0.9968328704740036
569,3000.0,14.210526315789473,9,0.9967618654905991
570,3000.0,14.473684210526315,0,0.9538914962627372
571,3000.0,14.473684210526315,1,0.9535509459951733
572,3000.0,14.473684210526315,2,0.9844044970715444
573,3000.0,14.473684210526315,3,0.9949241520365064
574,3000.0,14.473684210526315,4,1.0315991401024038
575,3000.0,14.473684210526315,5,0.9976993159445168
576,3000.0,14.473684210526315,6,0.9794215079670026
577,3000.0,14.473684210526315,7,0.9641238900940614
578,3000.0,14.473684210526315,8,0.9560663509308467
579,3000.0,14.473684210526315,9,0.9578379481207806
580,3000.0,14.736842105263158,0,0.9800693225357742
581,3000.0,14.736842105263158,1,1.0083675807390409
582,3000.0,14.736842105263158,2,0.9853362333993136
583,3000.0,14.736842105263158,3,0.981873645540526
584,3000.0,14.736842105263158,4,0.9333631900280224
585,3000.0,14.736842105263158,5,0.9886657094097325
586,3000.0,14.736842105263158,6,0.9954939259779575
587,3000.0,14.736842105263158,7,0.9975356080764028
588,3000.0,14.736842105263158,8,0.9536455903910493
589,3000.0,14.736842105263158,9,0.951158000994224
590,3000.0,15.0,0,0.9885661165795598
591,3000.0,15.0,1,0.9925370099882098
592,3000.0,15.0,2,1.025389005544037
593,3000.0,15.0,3,0.9945716325690419
594,3000.0,15.0,4,0.9802997108300626
595,3000.0,15.0,5,0.9640781496918678
596,3000.0,15.0,6,0.9544035947684913
597,3000.0,15.0,7,0.9583937834031225
598,3000.0,15.0,8,0.9770162587726607
599,3000.0,15.0,9,1.0029183318200412
600,4000.0,10.0,0,0.9893187676365897
601,4000.0,10.0,1,0.983298953505496
602,4000.0,10.0,2,0.990500407480846
603,4000.0,10.0,3,1.015623592590803
604,4000.0,10.0,4,1.0146826297571907
605,4000.0,10.0,5,0.9433092215874199
606,4000.0,10.0,6,1.0078716016258173
607,4000.0,10.0,7,0.9820342127504256
608,4000.0,10.0,8,0.9876282854039884
609,4000.0,10.0,9,0.9877847020784443
610,4000.0,10.263157894736842,0,0.9746883777079216
611,4000.0,10.263157894736842,1,0.9985579878999961
612,4000.0,10.263157894736842,2,0.9416075283463596
613,4000.0,10.263157894736842,3,0.9685607747216888
614,4000.0,10.263157894736842,4,0.9809200957654344
615,4000.0,10.263157894736842,5,0.9635649471191543
616,4000.0,10.263157894736842,6,0.9618402269667925
617,4000.0,10.263157894736842,7,1.016358552134597
618,4000.0,10.263157894736842,8,0.9834442352649143
619,4000.0,10.263157894736842,9,1.0172389921720983
620,4000.0,10.526315789473685,0,0.9696060293038539
621,4000.0,10.526315789473685,1,0.9421080889888419
622,4000.0,10.526315789473685,2,1.0254724293696567
623,4000.0,10.526315789473685,3,0.9854160232807602
624,4000.0,10.526315789473685,4,0.9849775719591245
625,4000.0,10.526315789473685,5,0.9864405248336335
626,4000.0,10.526315789473685,6,0.983156918812251
627,4000.0,10.526315789473685,7,0.9611411866599977
628,4000.0,10.526315789473685,8,0.9603901443216728
629,4000.0,10.526315789473685,9,0.9917669148086926
630,4000.0,10.789473684210526,0,0.9444373527593513
631,4000.0,10.789473684210526,1,0.971329447805747
632,4000.0,10.789473684210526,2,0.9784448379173694
633,4000.0,10.789473684210526,3,0.9708379650337674
634,4000.0,10.789473684210526,4,0.9745289827089341
635,4000.0,10.789473684210526,5,1.0086345497329565
636,4000.0,10.789473684210526,6,0.9746597395665205
637,4000.0,10.789473684210526,7,1.0162647169278038
638,4000.0,10.789473684210526,8,0.9684501548686485
639,4000.0,10.789473684210526,9,0.9399123018843746
640,4000.0,11.052631578947368,0,1.023228198805744
641,4000.0,11.052631578947368,1,0.9827179763642644
642,4000.0,11.052631578947368,2,0.9904999697236536
643,4000.0,11.052631578947368,3,0.9925409467962615
644,4000.0,11.052631578947368,4,0.9817946343750543
645,4000.0,11.052631578947368,5,0.958510751289559
646,4000.0,11.052631578947368,6,0.957567230108555
647,4000.0,11.052631578947368,7,0.9955341650915147
648,4000.0,11.052631578947368,8,0.9410230281036569
649,4000.0,11.052631578947368,9,0.971212432260926
650,4000.0,11.31578947368421,0,0.983101272822931
651,4000.0,11.31578947368421,1,0.966360072329792
652,4000.0,11.31578947368421,2,0.9800901260089165
653,4000.0,11.31578947368421,3,1.0123910406034768
654,4000.0,11.31578947368421,4,0.9804730874108933
655,4000.0,11.31578947368421,5,1.0114605570157815
656,4000.0,11.31578947368421,6,0.9681032362030012
657,4000.0,11.31578947368421,7,0.9391511740708736
658,4000.0,11.31578947368421,8,1.0302404063550405
659,4000.0,11.31578947368421,9,0.9842824868869052
660,4000.0,11.578947368421053,0,0.9888001669875608
661,4000.0,11.578947368421053,1,0.9906337098929634
662,4000.0,11.578947368421053,2,0.9859850593193331
663,4000.0,11.578947368421053,3,0.9658616040719337
664,4000.0,11.578947368421053,4,0.9536482079992032
665,4000.0,11.578947368421053,5,0.9956269786683487
666,4000.0,11.578947368421053,6,0.9736657940739858
667,4000.0,11.578947368421053,7,1.0079468533247202
668,4000.0,11.578947368421053,8,0.9850617601756047
669,4000.0,11.578947368421053,9,1.0164762597356076
670,4000.0,11.842105263157894,0,0.9701526437613099
671,4000.0,11.842105263157894,1,0.9410509193885894
672,4000.0,11.842105263157894,2,1.0164453331217373
673,4000.0,11.842105263157894,3,0.9849790731157385
674,4000.0,11.842105263157894,4,0.9916042108870756
675,4000.0,11.842105263157894,5,0.9916270048949427
676,4000.0,11.842105263157894,6,0.980117151630331
677,4000.0,11.842105263157894,7,0.9619793710469711
678,4000.0,11.842105263157894,8,0.9604333544290548
679,4000.0,11.842105263157894,9,0.9936444550485033
680,4000.0,12.105263157894736,0,0.9571883539385098
681,4000.0,12.105263157894736,1,0.9890433231569106
682,4000.0,12.105263157894736,2,0.9567364509005662
683,4000.0,12.105263157894736,3,0.9556913203434865
684,4000.0,12.105263157894736,4,0.9426114921690542
685,4000.0,12.105263157894736,5,0.9733601729632867
686,4000.0,12.105263157894736,6,0.9825842651119735
687,4000.0,12.105263157894736,7,0.9691870664604705
688,4000.0,12.105263157894736,8,0.9810431798643415
689,4000.0,12.105263157894736,9,1.0217576252085474
690,4000.0,12.368421052631579,0,0.9848161393712633
691,4000.0,12.368421052631579,1,1.0193861303560314
692,4000.0,12.368421052631579,2,0.9663353789988961
693,4000.0,12.368421052631579,3,0.9431388774405913
694,4000.0,12.368421052631579,4,1.018562793011883
695,4000.0,12.368421052631579,5,0.9850392348509923
696,4000.0,12.368421052631579,6,0.9902899936599375
697,4000.0,12.368421052631579,7,0.9924148046301005
698,4000.0,12.368421052631579,8,0.9810868253103804
699,4000.0,12.368421052631579,9,0.9600153425004545
700,4000.0,12.631578947368421,0,0.9608245265231832
701,4000.0,12.631578947368421,1,0.9972638240531675
702,4000.0,12.631578947368421,2,0.9908118108194167
703,4000.0,12.631578947368421,3,0.9784286510614945
704,4000.0,12.631578947368421,4,1.0024059072616731
705,4000.0,12.631578947368421,5,1.0368353535908996
706,4000.0,12.631578947368421,6,1.0238630337753647
707,4000.0,12.631578947368421,7,0.9426743321135417
708,4000.0,12.631578947368421,8,1.0304140758212392
709,4000.0,12.631578947368421,9,0.9884815592511211
710,4000.0,12.894736842105264,0,0.9895105932229898
711,4000.0,12.894736842105264,1,1.0007426824512549
712,4000.0,12.894736842105264,2,0.9730879124664518
713,4000.0,12.894736842105264,3,1.0041393123898994
714,4000.0,12.894736842105264,4,0.9920900120013637
715,4000.0,12.894736842105264,5,0.9967303011755457
716,4000.0,12.894736842105264,6,0.981908534356449
717,4000.0,12.894736842105264,7,0.9707227737774924
718,4000.0,12.894736842105264,8,0.9485755385789082
719,4000.0,12.894736842105264,9,1.004913935815744
720,4000.0,13.157894736842106,0,0.9440546323280338
721,4000.0,13.157894736842106,1,0.973360276777702
722,4000.0,13.157894736842106,2,0.9859317311605174
723,4000.0,13.157894736842106,3,0.9712505781476742
724,4000.0,13.157894736842106,4,0.9751368253284369
725,4000.0,13.157894736842106,5,1.0220718398193953
726,4000.0,13.157894736842106,6,0.987797552691304
727,4000.0,13.157894736842106,7,1.0205105951875724
728,4000.0,13.157894736842106,8,0.9706734587512561
729,4000.0,13.157894736842106,9,0.9425824524388753
730,4000.0,13.421052631578947,0,1.0253834372481305
731,4000.0,13.421052631578947,1,0.9903342010665409
732,4000.0,13.421052631578947,2,0.9908253668778643
733,4000.0,13.421052631578947,3,0.9888153558286757
734,4000.0,13.421052631578947,4,0.9882842652688556
735,4000.0,13.421052631578947,5,0.9661196022544898
736,4000.0,13.421052631578947,6,0.9598202555707509
737,4000.0,13.421052631578947,7,0.995286123212391
738,4000.0,13.421052631578947,8,0.9956407802071401
739,4000.0,13.421052631578947,9,0.9786806697168596
740,4000.0,13.68421052631579,0,0.9976752257748714
741,4000.0,13.68421052631579,1,1.025200238107277
742,4000.0,13.68421052631579,2,1.0265159849417695
743,4000.0,13.68421052631579,3,0.9476136725343224
744,4000.0,13.68421052631579,4,1.019918415252159
745,4000.0,13.68421052631579,5,0.9895001292690719
746,4000.0,13.68421052631579,6,0.9922165769314281
747,4000.0,13.68421052631579,7,1.0029980262877962
748,4000.0,13.68421052631579,8,0.9760615920596339
749,4000.0,13.68421052631579,9,1.0093581987566391
750,4000.0,13.947368421052632,0,0.9898233652679403
751,4000.0,13.947368421052632,1,0.991209343731735
752,4000.0,13.947368421052632,2,0.9841432737369267
753,4000.0,13.947368421052632,3,0.9712157234656577
754,4000.0,13.947368421052632,4,0.9503654397837717
755,4000.0,13.947368421052632,5,1.006761620558175
756,4000.0,13.947368421052632,6,0.9875291417895136
757,4000.0,13.947368421052632,7,0.9838616064368713
758,4000.0,13.947368421052632,8,1.0007321427886644
759,4000.0,13.947368421052632,9,1.0339068519268109
760,4000.0,14.210526315789473,0,1.0381876995465174
761,4000.0,14.210526315789473,1,0.947109051949074
762,4000.0,14.210526315789473,2,1.0227384095088279
763,4000.0,14.210526315789473,3,0.991225929896934
764,4000.0,14.210526315789473,4,0.9958997608061277
765,4000.0,14.210526315789473,5,1.0005950897037845
766,4000.0,14.210526315789473,6,0.9769345963585019
767,4000.0,14.210526315789473,7,1.008948450230868
768,4000.0,14.210526315789473,8,0.9924348809742094
769,4000.0,14.210526315789473,9,0.992482848101619
770,4000.0,14.473684210526315,0,0.987040605329286
771,4000.0,14.473684210526315,1,0.9750984911919816
772,4000.0,14.473684210526315,2,0.9477751863983825
773,4000.0,14.473684210526315,3,1.0077743673359432
774,4000.0,14.473684210526315,4,0.9911464140971453
775,4000.0,14.473684210526315,5,0.9845614255867391
776,4000.0,14.473684210526315,6,1.003892911090742
777,4000.0,14.473684210526315,7,1.0349002558198686
778,4000.0,14.473684210526315,8,1.0356488773772052
779,4000.0,14.473684210526315,9,0.946221426977331
780,4000.0,14.736842105263158,0,1.0304486113910254
781,4000.0,14.736842105263158,1,0.9919437536345861
782,4000.0,14.736842105263158,2,0.9917056532452918
783,4000.0,14.736842105263158,3,1.0026256472353752
784,4000.0,14.736842105263158,4,0.9773379795136767
785,4000.0,14.736842105263158,5,1.0084920326863014
786,4000.0,14.736842105263158,6,0.9900076155270543
787,4000.0,14.736842105263158,7,0.992873891105699
788,4000.0,14.736842105263158,8,0.9854180646803752
789,4000.0,14.736842105263158,9,0.9694360541284426
790,4000.0,15.0,0,0.9480698095593688
791,4000.0,15.0,1,1.0088042369901173
792,4000.0,15.0,2,0.942248490916232
793,4000.0,15.0,3,1.031725282097327
794,4000.0,15.0,4,0.9886205365074459
795,4000.0,15.0,5,0.9917792548327479
796,4000.0,15.0,6,0.9925093184850247
797,4000.0,15.0,7,0.9882216851840239
798,4000.0,15.0,8,0.9639519979487613
799,4000.0,15.0,9,0.961476858206786
800,5000.0,10.0,0,0.9771845498829879
801,5000.0,10.0,1,0.9874646220562867
802,5000.0,10.0,2,0.9551080068524802
803,5000.0,10.0,3,0.9391232493888352
804,5000.0,10.0,4,0.9932961784254573
805,5000.0,10.0,5,0.9699607149181491
806,5000.0,10.0,6,0.9911376870553424
807,5000.0,10.0,7,0.9873395081038107
808,5000.0,10.0,8,0.9756993675686467
809,5000.0,10.0,9,0.953856159362417
810,5000.0,10.263157894736842,0,0.9966483931544214
811,5000.0,10.263157894736842,1,0.9739558048871547
812,5000.0,10.263157894736842,2,1.02370526924195
813,5000.0,10.263157894736842,3,0.9947697851998003
814,5000.0,10.263157894736842,4,0.984049149419172
815,5000.0,10.263157894736842,5,1.0032884794270907
816,5000.0,10.263157894736842,6,0.9945654687224449
817,5000.0,10.263157894736842,7,1.0066139999622192
818,5000.0,10.263157894736842,8,1.0068945358726096
819,5000.0,10.263157894736842,9,0.9547015364166218
820,5000.0,10.526315789473685,0,0.9704251564829888
821,5000.0,10.526315789473685,1,0.9833837878285834
822,5000.0,10.526315789473685,2,0.9561551509746411
823,5000.0,10.526315789473685,3,0.9373132516560115
824,5000.0,10.526315789473685,4,0.9881119956338293
825,5000.0,10.526315789473685,5,0.9774910809764356
826,5000.0,10.526315789473685,6,0.9812264937944868
827,5000.0,10.526315789473685,7,0.9820434452945692
828,5000.0,10.526315789473685,8,0.9801582297123858
829,5000.0,10.526315789473685,9,0.9773212099912353
830,5000.0,10.789473684210526,0,0.9966007517380342
831,5000.0,10.789473684210526,1,0.9840871776081871
832,5000.0,10.789473684210526,2,1.0091524877824307
833,5000.0,10.789473684210526,3,0.9887924810207052
834,5000.0,10.789473684210526,4,0.9626007617359007
835,5000.0,10.789473684210526,5,0.9976072547555603
836,5000.0,10.789473684210526,6,0.9740502022990897
837,5000.0,10.789473684210526,7,0.954390553909842
838,5000.0,10.789473684210526,8,0.9340436100761466
839,5000.0,10.789473684210526,9,0.9763406384025105
840,5000.0,11.052631578947368,0,0.9768306863805541
841,5000.0,11.052631578947368,1,0.9847296629493322
842,5000.0,11.052631578947368,2,0.9842942743408102
843,5000.0,11.052631578947368,3,0.9745763787570549
844,5000.0,11.052631578947368,4,0.9758819809367052
845,5000.0,11.052631578947368,5,0.9693015389328025
846,5000.0,11.052631578947368,6,0.9767973676819472
847,5000.0,11.052631578947368,7,1.0101466091326998
848,5000.0,11.052631578947368,8,0.966805719117987
849,5000.0,11.052631578947368,9,1.00198163801636
850,5000.0,11.31578947368421,0,0.994587454490091
851,5000.0,11.31578947368421,1,0.980169540981527
852,5000.0,11.31578947368421,2,1.0028160519852978
853,5000.0,11.31578947368421,3,1.0052279351292932
854,5000.0,11.31578947368421,4,0.9615182542170057
855,5000.0,11.31578947368421,5,0.9406981292921947
856,5000.0,11.31578947368421,6,0.976530514578694
857,5000.0,11.31578947368421,7,0.998523136651515
858,5000.0,11.31578947368421,8,0.9794462926469605
859,5000.0,11.31578947368421,9,0.9908097560582507
860,5000.0,11.578947368421053,0,0.9741683820921311
861,5000.0,11.578947368421053,1,1.00452968468898
862,5000.0,11.578947368421053,2,0.9645215154784792
863,5000.0,11.578947368421053,3,0.9764634623138179
864,5000.0,11.578947368421053,4,1.0111627308325517
865,5000.0,11.578947368421053,5,0.9694055436271868
866,5000.0,11.578947368421053,6,1.0157588245001457
867,5000.0,11.578947368421053,7,0.9944637127402317
868,5000.0,11.578947368421053,8,0.9930585665886658
869,5000.0,11.578947368421053,9,1.0066192953566278
870,5000.0,11.842105263157894,0,0.9955269212407566
871,5000.0,11.842105263157894,1,1.000074607067081
872,5000.0,11.842105263157894,2,0.9941210407201855
873,5000.0,11.842105263157894,3,0.9547037687850171
874,5000.0,11.842105263157894,4,0.9735415247537587
875,5000.0,11.842105263157894,5,0.987906348553555
876,5000.0,11.842105263157894,6,0.9541705485834048
877,5000.0,11.842105263157894,7,0.9409361144587998
878,5000.0,11.842105263157894,8,0.996638180709148
879,5000.0,11.842105263157894,9,0.9793067372641588
880,5000.0,12.105263157894736,0,0.9937025935588921
881,5000.0,12.105263157894736,1,0.9878697824082427
882,5000.0,12.105263157894736,2,1.0072475262811893
883,5000.0,12.105263157894736,3,0.974777854880231
884,5000.0,12.105263157894736,4,1.0212028505492188
885,5000.0,12.105263157894736,5,0.9941057471165654
886,5000.0,12.105263157894736,6,0.9988461272149741
887,5000.0,12.105263157894736,7,1.0140198555548054
888,5000.0,12.105263157894736,8,0.9959189544768282
889,5000.0,12.105263157894736,9,1.0041958512127107
890,5000.0,12.368421052631579,0,1.0135220342401163
891,5000.0,12.368421052631579,1,0.9553498136224673
892,5000.0,12.368421052631579,2,0.9837690849417736
893,5000.0,12.368421052631579,3,0.991557112746725
894,5000.0,12.368421052631579,4,0.9550458083752408
895,5000.0,12.368421052631579,5,0.9388445239317393
896,5000.0,12.368421052631579,6,0.9937527791712601
897,5000.0,12.368421052631579,7,0.9750535865229968
898,5000.0,12.368421052631579,8,0.990182412383945
899,5000.0,12.368421052631579,9,0.9870507854509938
900,5000.0,12.631578947368421,0,0.9733455912235348
901,5000.0,12.631578947368421,1,1.0125847537543529
902,5000.0,12.631578947368421,2,0.9680497341566622
903,5000.0,12.631578947368421,3,1.0045109729352228
904,5000.0,12.631578947368421,4,0.9974711404402573
905,5000.0,12.631578947368421,5,0.9899946363619692
906,5000.0,12.631578947368421,6,0.9977185049974788
907,5000.0,12.631578947368421,7,1.0060330425572446
908,5000.0,12.631578947368421,8,0.9647749066318487
909,5000.0,12.631578947368421,9,0.9419097655369815
910,5000.0,12.894736842105264,0,0.9783024825412051
911,5000.0,12.894736842105264,1,1.0283514109917355
912,5000.0,12.894736842105264,2,0.984543195938978
913,5000.0,12.894736842105264,3,0.9896773702281677
914,5000.0,12.894736842105264,4,0.9794225369335448
915,5000.0,12.894736842105264,5,0.9955768603512578
916,5000.0,12.894736842105264,6,0.9656500722691859
917,5000.0,12.894736842105264,7,0.9780614501035766
918,5000.0,12.894736842105264,8,0.9732820166203497
919,5000.0,12.894736842105264,9,1.0116141564942633
920,5000.0,13.157894736842106,0,0.9706246889300411
921,5000.0,13.157894736842106,1,1.0095105461160705
922,5000.0,13.157894736842106,2,1.0000297177786308
923,5000.0,13.157894736842106,3,0.9898903595536334
924,5000.0,13.157894736842106,4,0.9995931556346159
925,5000.0,13.157894736842106,5,1.007718216714438
926,5000.0,13.157894736842106,6,0.9634691581535666
927,5000.0,13.157894736842106,7,0.9421887681611474
928,5000.0,13.157894736842106,8,0.9776558193408091
929,5000.0,13.157894736842106,9,1.036362879617054
930,5000.0,13.421052631578947,0,0.9813060159384793
931,5000.0,13.421052631578947,1,0.9948263627589068
932,5000.0,13.421052631578947,2,0.9788909019971055
933,5000.0,13.421052631578947,3,0.9982436650356783
934,5000.0,13.421052631578947,4,0.9648960114605654
935,5000.0,13.421052631578947,5,0.9774867540272694
936,5000.0,13.421052631578947,6,1.0146747712683626
937,5000.0,13.421052631578947,7,0.9774146057055659
938,5000.0,13.421052631578947,8,1.0200346953648307
939,5000.0,13.421052631578947,9,0.9971031035260753
940,5000.0,13.68421052631579,0,0.9963203887695965
941,5000.0,13.68421052631579,1,1.0142974926281532
942,5000.0,13.68421052631579,2,0.9961282587645225
943,5000.0,13.68421052631579,3,1.0024143505920502
944,5000.0,13.68421052631579,4,1.006496096794251
945,5000.0,13.68421052631579,5,0.9543600951217259
946,5000.0,13.68421052631579,6,0.9816731881580857
947,5000.0,13.68421052631579,7,0.9904592114052113
948,5000.0,13.68421052631579,8,0.955372430581781
949,5000.0,13.68421052631579,9,0.9423595077548982
950,5000.0,13.947368421052632,0,0.9968423174518295
951,5000.0,13.947368421052632,1,0.976458794055771
952,5000.0,13.947368421052632,2,0.9913358198588844
953,5000.0,13.947368421052632,3,0.9845891831388873
954,5000.0,13.947368421052632,4,1.0156512618373026
955,5000.0,13.947368421052632,5,0.9739462084115821
956,5000.0,13.947368421052632,6,1.0183769043240845
957,5000.0,13.947368421052632,7,0.9986672059535185
958,5000.0,13.947368421052632,8,0.9987840101777702
959,5000.0,13.947368421052632,9,1.0170369270077493
960,5000.0,14.210526315789473,0,0.9966553853673628
961,5000.0,14.210526315789473,1,1.0080885604643233
962,5000.0,14.210526315789473,2,1.0066686954409432
963,5000.0,14.210526315789473,3,0.9575218095518266
964,5000.0,14.210526315789473,4,0.9779748187778712
965,5000.0,14.210526315789473,5,0.9913300981985388
966,5000.0,14.210526315789473,6,0.9566239494481974
967,5000.0,14.210526315789473,7,0.9392503674768191
968,5000.0,14.210526315789473,8,0.9970223756201557
969,5000.0,14.210526315789473,9,0.9776432101745934
970,5000.0,14.473684210526315,0,0.9968039539210859
971,5000.0,14.473684210526315,1,0.9867736254312383
972,5000.0,14.473684210526315,2,0.9736671456376108
973,5000.0,14.473684210526315,3,1.0078339719776863
974,5000.0,14.473684210526315,4,0.9704890745748173
975,5000.0,14.473684210526315,5,1.010878048158931
976,5000.0,14.473684210526315,6,0.9980269707250263
977,5000.0,14.473684210526315,7,0.9828788104408545
978,5000.0,14.473684210526315,8,0.9998921159915516
979,5000.0,14.473684210526315,9,1.0050226189965188
980,5000.0,14.736842105263158,0,0.9625092544989013
981,5000.0,14.736842105263158,1,0.9426713423733701
982,5000.0,14.736842105263158,2,0.9789060871810665
983,5000.0,14.736842105263158,3,1.0245574666121848
984,5000.0,14.736842105263158,4,0.9835818902515081
985,5000.0,14.736842105263158,5,0.9963791773392825
986,5000.0,14.736842105263158,6,0.9778616581518506
987,5000.0,14.736842105263158,7,0.9984028649380602
988,5000.0,14.736842105263158,8,0.965201732660844
989,5000.0,14.736842105263158,9,0.9782975081584946
990,5000.0,15.0,0,1.0129160499238354
991,5000.0,15.0,1,0.9769701169954323
992,5000.0,15.0,2,1.0254499795729342
993,5000.0,15.0,3,0.9978233441719746
994,5000.0,15.0,4,0.9961406771271617
995,5000.0,15.0,5,1.0158436492756182
996,5000.0,15.0,6,0.9960152826759407
997,5000.0,15.0,7,1.0047715193483375
998,5000.0,15.0,8,1.0069878861722146
999,5000.0,15.0,9,0.958865155809138
1000,6000.0,10.0,0,1.0129374869946102
1001,6000.0,10.0,1,0.9969389211034663
1002,6000.0,10.0,2,0.9821964848442507
1003,6000.0,10.0,3,0.9824298208947081
1004,6000.0,10.0,4,1.0116434496074145
1005,6000.0,10.0,5,0.985756257151764
1006,6000.0,10.0,6,0.9547384516553437
1007,6000.0,10.0,7,1.0223153461521184
1008,6000.0,10.0,8,0.9985553315915675
1009,6000.0,10.0,9,0.9656812541432722
1010,6000.0,10.263157894736842,0,0.9648614160254584
1011,6000.0,10.263157894736842,1,0.9971022002745531
1012,6000.0,10.263157894736842,2,0.9789406352463417
1013,6000.0,10.263157894736842,3,1.0013301971505306
1014,6000.0,10.263157894736842,4,0.9768546253511541
1015,6000.0,10.263157894736842,5,0.9787323063901018
1016,6000.0,10.263157894736842,6,0.9753573362072963
1017,6000.0,10.263157894736842,7,0.9828644881635783
1018,6000.0,10.263157894736842,8,0.9914538817366457
1019,6000.0,10.263157894736842,9,0.9621580464621575
1020,6000.0,10.526315789473685,0,0.9782340563041046
1021,6000.0,10.526315789473685,1,1.0230273405519028
1022,6000.0,10.526315789473685,2,1.0028901948591142
1023,6000.0,10.526315789473685,3,1.0169463772618919
1024,6000.0,10.526315789473685,4,0.9606652225387179
1025,6000.0,10.526315789473685,5,1.0152957792154373
1026,6000.0,10.526315789473685,6,0.993369818119208
1027,6000.0,10.526315789473685,7,0.9800863575474178
1028,6000.0,10.526315789473685,8,1.0021989246039755
1029,6000.0,10.526315789473685,9,0.9760434558053078
1030,6000.0,10.789473684210526,0,0.979926036386497
1031,6000.0,10.789473684210526,1,0.9804494802224429
1032,6000.0,10.789473684210526,2,0.9844287482234878
1033,6000.0,10.789473684210526,3,0.9963063845719727
1034,6000.0,10.789473684210526,4,0.9626994018688172
1035,6000.0,10.789473684210526,5,0.9805534192133069
1036,6000.0,10.789473684210526,6,1.029856977801218
1037,6000.0,10.789473684210526,7,0.997606056771672
1038,6000.0,10.789473684210526,8,1.0492356060844363
1039,6000.0,10.789473684210526,9,0.9640364997602318
1040,6000.0,11.052631578947368,0,1.013522286043943
1041,6000.0,11.052631578947368,1,0.9338445143514287
1042,6000.0,11.052631578947368,2,0.9925832959795836
1043,6000.0,11.052631578947368,3,1.0046964273467984
1044,6000.0,11.052631578947368,4,0.9968570248873557
1045,6000.0,11.052631578947368,5,0.967170947758519
1046,6000.0,11.052631578947368,6,0.9616099299458467
1047,6000.0,11.052631578947368,7,0.99540487498048
1048,6000.0,11.052631578947368,8,0.9778827681628359
1049,6000.0,11.052631578947368,9,1.0060469721942475
1050,6000.0,11.31578947368421,0,0.9760497490446074
1051,6000.0,11.31578947368421,1,0.9785546173842936
1052,6000.0,11.31578947368421,2,0.9792586474986787
1053,6000.0,11.31578947368421,3,0.9866214285550745
1054,6000.0,11.31578947368421,4,1.0024807003749758
1055,6000.0,11.31578947368421,5,0.9587156794713566
1056,6000.0,11.31578947368421,6,0.9788192683658765
1057,6000.0,11.31578947368421,7,1.022284333341937
1058,6000.0,11.31578947368421,8,1.0046986310623436
1059,6000.0,11.31578947368421,9,1.0510562937881238
1060,6000.0,11.578947368421053,0,0.9595598803222412
1061,6000.0,11.578947368421053,1,1.0117160477054372
1062,6000.0,11.578947368421053,2,0.9952494591576178
1063,6000.0,11.578947368421053,3,0.9787815878302739
1064,6000.0,11.578947368421053,4,0.9994098837766231
1065,6000.0,11.578947368421053,5,0.9768517847967436
1066,6000.0,11.578947368421053,6,0.9766951134228298
1067,6000.0,11.578947368421053,7,0.9838803594208745
1068,6000.0,11.578947368421053,8,0.9859660882329894
1069,6000.0,11.578947368421053,9,0.9992846739961885
1070,6000.0,11.842105263157894,0,0.9659804320241726
1071,6000.0,11.842105263157894,1,0.9809257632740297
1072,6000.0,11.842105263157894,2,1.0254339266130683
1073,6000.0,11.842105263157894,3,1.0066705707137689
1074,6000.0,11.842105263157894,4,1.0437239672473735
1075,6000.0,11.842105263157894,5,0.9587321161368002
1076,6000.0,11.842105263157894,6,1.01517519806995
1077,6000.0,11.842105263157894,7,0.9363813995239583
1078,6000.0,11.842105263157894,8,0.997788757876565
1079,6000.0,11.842105263157894,9,1.0068785353998688
1080,6000.0,12.105263157894736,0,0.9630192580014492
1081,6000.0,12.105263157894736,1,0.997960004414869
1082,6000.0,12.105263157894736,2,0.9781940632982014
1083,6000.0,12.105263157894736,3,1.0010340400675635
1084,6000.0,12.105263157894736,4,0.9775509687069608
1085,6000.0,12.105263157894736,5,0.980017195481188
1086,6000.0,12.105263157894736,6,0.9813804673614047
1087,6000.0,12.105263157894736,7,0.9856359798273319
1088,6000.0,12.105263157894736,8,0.9976802341997425
1089,6000.0,12.105263157894736,9,0.9623111515428535
1090,6000.0,12.368421052631579,0,0.983122588771481
1091,6000.0,12.368421052631579,1,1.0351226727905125
1092,6000.0,12.368421052631579,2,1.0043207596775923
1093,6000.0,12.368421052631579,3,1.0372186746952627
1094,6000.0,12.368421052631579,4,0.9699147025645853
1095,6000.0,12.368421052631579,5,1.0172180486992346
1096,6000.0,12.368421052631579,6,0.9366158601246194
1097,6000.0,12.368421052631579,7,0.9949780416363799
1098,6000.0,12.368421052631579,8,0.997003984796485
1099,6000.0,12.368421052631579,9,0.9698537929065355
1100,6000.0,12.631578947368421,0,0.9627781713868769
1101,6000.0,12.631578947368421,1,0.9961503448789053
1102,6000.0,12.631578947368421,2,0.9809843336599278
1103,6000.0,12.631578947368421,3,1.007745621954187
1104,6000.0,12.631578947368421,4,0.9764437025001337
1105,6000.0,12.631578947368421,5,0.983094223905523
1106,6000.0,12.631578947368421,6,0.9859149924888124
1107,6000.0,12.631578947368421,7,0.9857996659171143
1108,6000.0,12.631578947368421,8,1.005084573855812
1109,6000.0,12.631578947368421,9,0.9675400120846147
1110,6000.0,12.894736842105264,0,0.9852525995134842
1111,6000.0,12.894736842105264,1,1.0330624762902638
1112,6000.0,12.894736842105264,2,1.0062725531795755
1113,6000.0,12.894736842105264,3,1.054143725952114
1114,6000.0,12.894736842105264,4,0.9625107740379267
1115,6000.0,12.894736842105264,5,1.0136316900840074
1116,6000.0,12.894736842105264,6,1.0000761566470486
1117,6000.0,12.894736842105264,7,0.9693647804310987
1118,6000.0,12.894736842105264,8,0.9654329399135292
1119,6000.0,12.894736842105264,9,0.9952802932056781
1120,6000.0,13.157894736842106,0,0.9829132411583759
1121,6000.0,13.157894736842106,1,1.0080157505906793
1122,6000.0,13.157894736842106,2,0.9773883730196006
1123,6000.0,13.157894736842106,3,0.9851619274192063
1124,6000.0,13.157894736842106,4,0.9859706277658523
1125,6000.0,13.157894736842106,5,0.987589589871016
1126,6000.0,13.157894736842106,6,1.0093083141059802
1127,6000.0,13.157894736842106,7,0.9661173413057725
1128,6000.0,13.157894736842106,8,0.9850283899763879
1129,6000.0,13.157894736842106,9,1.0305933222430939
1130,6000.0,13.421052631578947,0,1.0036359527628935
1131,6000.0,13.421052631578947,1,1.0528237302676369
1132,6000.0,13.421052631578947,2,0.9720978059475746
1133,6000.0,13.421052631578947,3,1.0160277814783978
1134,6000.0,13.421052631578947,4,1.0001688461018359
1135,6000.0,13.421052631578947,5,1.0055144718072035
1136,6000.0,13.421052631578947,6,0.984729105197287
1137,6000.0,13.421052631578947,7,0.973500227697978
1138,6000.0,13.421052631578947,8,0.9893283315159769
1139,6000.0,13.421052631578947,9,0.9837502243550112
1140,6000.0,13.68421052631579,0,1.0123250056657487
1141,6000.0,13.68421052631579,1,1.0070320216208621
1142,6000.0,13.68421052631579,2,1.0316914076390749
1143,6000.0,13.68421052631579,3,1.0343504515481516
1144,6000.0,13.68421052631579,4,0.9793354213705393
1145,6000.0,13.68421052631579,5,1.0040193651381388
1146,6000.0,13.68421052631579,6,0.9810745168520862
1147,6000.0,13.68421052631579,7,1.009252485746208
1148,6000.0,13.68421052631579,8,1.0042284079438
1149,6000.0,13.68421052631579,9,0.9709033846576411
1150,6000.0,13.947368421052632,0,1.0096295353824936
1151,6000.0,13.947368421052632,1,0.9895463748984014
1152,6000.0,13.947368421052632,2,0.9965831489529124
1153,6000.0,13.947368421052632,3,0.9816493630599993
1154,6000.0,13.947368421052632,4,1.0096332838528865
1155,6000.0,13.947368421052632,5,0.9810692532608761
1156,6000.0,13.947368421052632,6,0.9872698934037181
1157,6000.0,13.947368421052632,7,0.9800881129607376
1158,6000.0,13.947368421052632,8,0.990603836305577
1159,6000.0,13.947368421052632,9,1.0029241685212307
1160,6000.0,14.210526315789473,0,0.9651579805752465
1161,6000.0,14.210526315789473,1,0.9782731933441038
1162,6000.0,14.210526315789473,2,1.0355601904100746
1163,6000.0,14.210526315789473,3,1.0084581178473404
1164,6000.0,14.210526315789473,4,1.0292460235498404
1165,6000.0,14.210526315789473,5,0.9654251657143691
1166,6000.0,14.210526315789473,6,1.012260555179836
1167,6000.0,14.210526315789473,7,0.9393682413017681
1168,6000.0,14.210526315789473,8,0.9969034727425743
1169,6000.0,14.210526315789473,9,1.008810023378961
1170,6000.0,14.473684210526315,0,0.9883672353360715
1171,6000.0,14.473684210526315,1,1.0085772647421334
1172,6000.0,14.473684210526315,2,0.9667716695651447
1173,6000.0,14.473684210526315,3,0.9795059335748597
1174,6000.0,14.473684210526315,4,1.0330582183868255
1175,6000.0,14.473684210526315,5,1.009105455367417
1176,6000.0,14.473684210526315,6,1.0353026120292488
1177,6000.0,14.473684210526315,7,0.9656885115136807
1178,6000.0,14.473684210526315,8,1.014857666944156
1179,6000.0,14.473684210526315,9,0.9374976885854603
1180,6000.0,14.736842105263158,0,0.9946754728163949
1181,6000.0,14.736842105263158,1,1.0067623145791997
1182,6000.0,14.736842105263158,2,0.977354777137665
1183,6000.0,14.736842105263158,3,1.0150399596578232
1184,6000.0,14.736842105263158,4,0.9974801306296865
1185,6000.0,14.736842105263158,5,1.000478799235687
1186,6000.0,14.736842105263158,6,0.9850143764661857
1187,6000.0,14.736842105263158,7,0.9925937685191555
1188,6000.0,14.736842105263158,8,1.0038495138010404
1189,6000.0,14.736842105263158,9,0.9706234591271573
1190,6000.0,15.0,0,0.9634796680055261
1191,6000.0,15.0,1,0.9994422444510512
1192,6000.0,15.0,2,0.9834553480890863
1193,6000.0,15.0,3,1.0073621074690575
1194,6000.0,15.0,4,0.9799181846023827
1195,6000.0,15.0,5,0.9862762446550567
1196,6000.0,15.0,6,0.9820790489222573
1197,6000.0,15.0,7,0.9867027263542616
1198,6000.0,15.0,8,1.0077651928772662
1199,6000.0,15.0,9,0.9631287709881322
1200,7000.0,10.0,0,0.9956645645204164
1201,7000.0,10.0,1,0.9877454684999316
1202,7000.0,10.0,2,0.9870215740821195
1203,7000.0,10.0,3,0.9599234263822818
1204,7000.0,10.0,4,0.9815629949014117
1205,7000.0,10.0,5,0.961769119735982
1206,7000.0,10.0,6,1.015689370188483
1207,7000.0,10.0,7,0.9877967258767854
1208,7000.0,10.0,8,0.9869830010328101
1209,7000.0,10.0,9,0.9692423792335784
1210,7000.0,10.263157894736842,0,0.9911073375854521
1211,7000.0,10.263157894736842,1,0.9886456307744659
1212,7000.0,10.263157894736842,2,0.9843370574521256
1213,7000.0,10.263157894736842,3,0.9780480889504263
1214,7000.0,10.263157894736842,4,0.9896327135634067
1215,7000.0,10.263157894736842,5,0.9807441241398139
1216,7000.0,10.263157894736842,6,0.9720574301983687
1217,7000.0,10.263157894736842,7,0.9937707635149665
1218,7000.0,10.263157894736842,8,0.9969325400703142
1219,7000.0,10.263157894736842,9,0.9899201778431223
1220,7000.0,10.526315789473685,0,0.9574107208199673
1221,7000.0,10.526315789473685,1,0.9827208165497789
1222,7000.0,10.526315789473685,2,0.9849449415069609
1223,7000.0,10.526315789473685,3,0.9905507494534131
1224,7000.0,10.526315789473685,4,0.9819614693711264
1225,7000.0,10.526315789473685,5,0.9512304492996295
1226,7000.0,10.526315789473685,6,0.9806228539185624
1227,7000.0,10.526315789473685,7,0.9855348539987319
1228,7000.0,10.526315789473685,8,0.9829349213367955
1229,7000.0,10.526315789473685,9,0.9795590496311425
1230,7000.0,10.789473684210526,0,0.9909995918082735
1231,7000.0,10.789473684210526,1,0.9660097027557776
1232,7000.0,10.789473684210526,2,0.9964793412495211
1233,7000.0,10.789473684210526,3,0.9968639139511781
1234,7000.0,10.789473684210526,4,0.9956656769212177
1235,7000.0,10.789473684210526,5,0.9691357232459186
1236,7000.0,10.789473684210526,6,0.9787847914734782
1237,7000.0,10.789473684210526,7,0.9614507328919484
1238,7000.0,10.789473684210526,8,0.9714775341190697
1239,7000.0,10.789473684210526,9,0.978775453247164
1240,7000.0,11.052631578947368,0,1.0008185695052265
1241,7000.0,11.052631578947368,1,0.986536797613451
1242,7000.0,11.052631578947368,2,0.9796229441182329
1243,7000.0,11.052631578947368,3,0.9525745673662654
1244,7000.0,11.052631578947368,4,0.9835597940941759
1245,7000.0,11.052631578947368,5,0.9877197721022064
1246,7000.0,11.052631578947368,6,0.9822642561002066
1247,7000.0,11.052631578947368,7,0.9744483906339458
1248,7000.0,11.052631578947368,8,0.9926994071581844
1249,7000.0,11.052631578947368,9,0.970178927894446
1250,7000.0,11.31578947368421,0,0.9889831624105778
1251,7000.0,11.31578947368421,1,0.99690365060643
1252,7000.0,11.31578947368421,2,0.9932389000008096
1253,7000.0,11.31578947368421,3,0.9726890507279409
1254,7000.0,11.31578947368421,4,0.9822174134031264
1255,7000.0,11.31578947368421,5,0.9624122990970263
1256,7000.0,11.31578947368421,6,0.9707177321769047
1257,7000.0,11.31578947368421,7,0.9804038799558871
1258,7000.0,11.31578947368421,8,1.00548479754523
1259,7000.0,11.31578947368421,9,0.9919329025783328
1260,7000.0,11.578947368421053,0,0.9853034804953816
1261,7000.0,11.578947368421053,1,0.9925566471442296
1262,7000.0,11.578947368421053,2,0.9989557710014172
1263,7000.0,11.578947368421053,3,0.9778011591990282
1264,7000.0,11.578947368421053,4,1.0000327285447854
1265,7000.0,11.578947368421053,5,0.9800708512363803
1266,7000.0,11.578947368421053,6,0.9747236144713204
1267,7000.0,11.578947368421053,7,1.0070537548360567
1268,7000.0,11.578947368421053,8,1.0003910450223197
1269,7000.0,11.578947368421053,9,0.9897696360543825
1270,7000.0,11.842105263157894,0,0.9576342546993234
1271,7000.0,11.842105263157894,1,0.9905346535827547
1272,7000.0,11.842105263157894,2,0.9812956658662138
1273,7000.0,11.842105263157894,3,0.9907183398805224
1274,7000.0,11.842105263157894,4,0.9935045457859133
1275,7000.0,11.842105263157894,5,0.9979057293006364
1276,7000.0,11.842105263157894,6,0.9774056034845688
1277,7000.0,11.842105263157894,7,0.956937071006956
1278,7000.0,11.842105263157894,8,1.0146341499178548
1279,7000.0,11.842105263157894,9,0.9896137386411656
1280,7000.0,12.105263157894736,0,0.992039084921016
1281,7000.0,12.105263157894736,1,0.9702070972710152
1282,7000.0,12.105263157894736,2,0.9913412330966784
1283,7000.0,12.105263157894736,3,0.9933409586973015
1284,7000.0,12.105263157894736,4,0.9911965081132246
1285,7000.0,12.105263157894736,5,0.9776832458832807
1286,7000.0,12.105263157894736,6,1.001803449491624
1287,7000.0,12.105263157894736,7,0.981456579508805
1288,7000.0,12.105263157894736,8,0.978977037478301
1289,7000.0,12.105263157894736,9,1.00128484329633
1290,7000.0,12.368421052631579,0,1.008088219894746
1291,7000.0,12.368421052631579,1,0.9934885157525994
1292,7000.0,12.368421052631579,2,0.9616929190058775
1293,7000.0,12.368421052631579,3,0.9955623875855838
1294,7000.0,12.368421052631579,4,0.9846535246625142
1295,7000.0,12.368421052631579,5,0.9933573456999899
1296,7000.0,12.368421052631579,6,0.962899081707989
1297,7000.0,12.368421052631579,7,0.9968269710065372
1298,7000.0,12.368421052631579,8,0.9849392628132448
1299,7000.0,12.368421052631579,9,1.0007744172452102
1300,7000.0,12.631578947368421,0,0.969500803577125
1301,7000.0,12.631578947368421,1,0.9843060603285153
1302,7000.0,12.631578947368421,2,0.9855368473474263
1303,7000.0,12.631578947368421,3,0.9762208750797924
1304,7000.0,12.631578947368421,4,0.9761041338470643
1305,7000.0,12.631578947368421,5,0.9896098930360698
1306,7000.0,12.631578947368421,6,0.9694906962569854
1307,7000.0,12.631578947368421,7,0.9794401846684031
1308,7000.0,12.631578947368421,8,1.0082105355408983
1309,7000.0,12.631578947368421,9,0.9628099946754575
1310,7000.0,12.894736842105264,0,0.9783369415990543
1311,7000.0,12.894736842105264,1,0.9671134294968698
1312,7000.0,12.894736842105264,2,0.9881037718137816
1313,7000.0,12.894736842105264,3,0.9993387466946932
1314,7000.0,12.894736842105264,4,1.0180755282220446
1315,7000.0,12.894736842105264,5,0.9902151343022646
1316,7000.0,12.894736842105264,6,0.9945740848596102
1317,7000.0,12.894736842105264,7,0.9728969845871206
1318,7000.0,12.894736842105264,8,0.9877810594974594
1319,7000.0,12.894736842105264,9,0.9935565655454754
1320,7000.0,13.157894736842106,0,1.0085975713464908
1321,7000.0,13.157894736842106,1,0.9791802435976681
1322,7000.0,13.157894736842106,2,1.0001976938266834
1323,7000.0,13.157894736842106,3,0.9833698043678796
1324,7000.0,13.157894736842106,4,0.9776741266858258
1325,7000.0,13.157894736842106,5,1.0065203013885993
1326,7000.0,13.157894736842106,6,1.0032135355282366
1327,7000.0,13.157894736842106,7,0.9938393644987176
1328,7000.0,13.157894736842106,8,0.9595645908747739
1329,7000.0,13.157894736842106,9,0.9948723352204896
1330,7000.0,13.421052631578947,0,0.9831130815836917
1331,7000.0,13.421052631578947,1,0.989174129460324
1332,7000.0,13.421052631578947,2,0.9940291252822517
1333,7000.0,13.421052631578947,3,0.9965004975225736
1334,7000.0,13.421052631578947,4,0.9895023919905265
1335,7000.0,13.421052631578947,5,0.96816582817064
1336,7000.0,13.421052631578947,6,0.9826368618900685
1337,7000.0,13.421052631578947,7,0.9604477081646028
1338,7000.0,13.421052631578947,8,1.0077599949536091
1339,7000.0,13.421052631578947,9,1.0037122511111027
1340,7000.0,13.68421052631579,0,1.0283175487352738
1341,7000.0,13.68421052631579,1,0.9697816998109607
1342,7000.0,13.68421052631579,2,0.9828621695927984
1343,7000.0,13.68421052631579,3,0.9828436454332392
1344,7000.0,13.68421052631579,4,1.0006310954121735
1345,7000.0,13.68421052631579,5,0.9913703737102546
1346,7000.0,13.68421052631579,6,0.9885562447061212
1347,7000.0,13.68421052631579,7,0.9930628162846017
1348,7000.0,13.68421052631579,8,0.9626439129464924
1349,7000.0,13.68421052631579,9,0.9840786163126523
1350,7000.0,13.947368421052632,0,0.9902986464975617
1351,7000.0,13.947368421052632,1,0.9975511577507955
1352,7000.0,13.947368421052632,2,0.9604974088368139
1353,7000.0,13.947368421052632,3,1.0033356040907666
1354,7000.0,13.947368421052632,4,0.9905970496527666
1355,7000.0,13.947368421052632,5,1.001613013850566
1356,7000.0,13.947368421052632,6,0.9696406362919868
1357,7000.0,13.947368421052632,7,0.9812248371393674
1358,7000.0,13.947368421052632,8,0.9888841613778889
1359,7000.0,13.947368421052632,9,0.9763763394904754
1360,7000.0,14.210526315789473,0,0.9794923768684322
1361,7000.0,14.210526315789473,1,0.9872770273053371
1362,7000.0,14.210526315789473,2,0.9684925945805353
1363,7000.0,14.210526315789473,3,0.9801616401784733
1364,7000.0,14.210526315789473,4,1.0026998375038432
1365,7000.0,14.210526315789473,5,0.9618031768678666
1366,7000.0,14.210526315789473,6,0.9831792949749173
1367,7000.0,14.210526315789473,7,0.9688674714139436
1368,7000.0,14.210526315789473,8,0.9865745061244152
1369,7000.0,14.210526315789473,9,0.9996930629886658
1370,7000.0,14.473684210526315,0,0.9629187266897015
1371,7000.0,14.473684210526315,1,0.9914610338332116
1372,7000.0,14.473684210526315,2,0.9887367711168719
1373,7000.0,14.473684210526315,3,0.9993310733839225
1374,7000.0,14.473684210526315,4,0.9688412995216714
1375,7000.0,14.473684210526315,5,0.9835366137982876
1376,7000.0,14.473684210526315,6,0.9874178041933792
1377,7000.0,14.473684210526315,7,0.9772994251174764
1378,7000.0,14.473684210526315,8,0.9772224555588086
1379,7000.0,14.473684210526315,9,0.9863766787549401
1380,7000.0,14.736842105263158,0,0.969037805087544
1381,7000.0,14.736842105263158,1,0.9788190325654262
1382,7000.0,14.736842105263158,2,1.005641457630967
1383,7000.0,14.736842105263158,3,0.9628541118934826
1384,7000.0,14.736842105263158,4,0.9812527543527767
1385,7000.0,14.736842105263158,5,0.9675842268126006
1386,7000.0,14.736842105263158,6,1.0197588588037865
1387,7000.0,14.736842105263158,7,0.9916970666509516
1388,7000.0,14.736842105263158,8,0.9945840191232974
1389,7000.0,14.736842105263158,9,0.9700598089050322
1390,7000.0,15.0,0,0.9927743739154685
1391,7000.0,15.0,1,0.9948318906186104
1392,7000.0,15.0,2,1.0088118506767922
1393,7000.0,15.0,3,0.9814651810869335
1394,7000.0,15.0,4,1.0067423203404726
1395,7000.0,15.0,5,0.9810431413898555
1396,7000.0,15.0,6,0.9790194088533061
1397,7000.0,15.0,7,1.0097895231587657
1398,7000.0,15.0,8,1.0094066604801353
1399,7000.0,15.0,9,0.9938224647689414
1400,8000.0,10.0,0,0.984280785805348
1401,8000.0,10.0,1,0.9805502509040979
1402,8000.0,10.0,2,1.0184491245592937
1403,8000.0,10.0,3,1.0209189414585171
1404,8000.0,10.0,4,0.9814735353267531
1405,8000.0,10.0,5,0.9756306894770275
1406,8000.0,10.0,6,1.0216852088220623
1407,8000.0,10.0,7,0.977114038269738
1408,8000.0,10.0,8,0.9756014201037325
1409,8000.0,10.0,9,0.9921080055360694
1410,8000.0,10.263157894736842,0,0.9782585285337132
1411,8000.0,10.263157894736842,1,0.9905264463553588
1412,8000.0,10.263157894736842,2,1.004351808349621
1413,8000.0,10.263157894736842,3,0.9709519074869171
1414,8000.0,10.263157894736842,4,1.022525179986548
1415,8000.0,10.263157894736842,5,1.0178379254813874
1416,8000.0,10.263157894736842,6,0.9900873567296076
1417,8000.0,10.263157894736842,7,0.9495814173264033
1418,8000.0,10.263157894736842,8,0.9855562417835215
1419,8000.0,10.263157894736842,9,0.9751902525507046
1420,8000.0,10.526315789473685,0,0.9873086047835669
1421,8000.0,10.526315789473685,1,0.9983690754126825
1422,8000.0,10.526315789473685,2,0.9789712948274176
1423,8000.0,10.526315789473685,3,0.9761742109486623
1424,8000.0,10.526315789473685,4,1.0194288859983467
1425,8000.0,10.526315789473685,5,0.9806987290905534
1426,8000.0,10.526315789473685,6,0.9768305998112242
1427,8000.0,10.526315789473685,7,0.9893806922023479
1428,8000.0,10.526315789473685,8,0.9735033754105559
1429,8000.0,10.526315789473685,9,0.9902289715045778
1430,8000.0,10.789473684210526,0,0.9923903762930958
1431,8000.0,10.789473684210526,1,0.9700759260251643
1432,8000.0,10.789473684210526,2,1.0257582715150344
1433,8000.0,10.789473684210526,3,1.0195177123022299
1434,8000.0,10.789473684210526,4,0.9874628051930592
1435,8000.0,10.789473684210526,5,0.9493192938060552
1436,8000.0,10.789473684210526,6,0.9883951136981005
1437,8000.0,10.789473684210526,7,0.9779473429827455
1438,8000.0,10.789473684210526,8,0.9864343497719985
1439,8000.0,10.789473684210526,9,0.9999480145788767
1440,8000.0,11.052631578947368,0,0.9801945672107757
1441,8000.0,11.052631578947368,1,1.0004723984082953
1442,8000.0,11.052631578947368,2,0.9952970552155392
1443,8000.0,11.052631578947368,3,0.989809078754555
1444,8000.0,11.052631578947368,4,0.9904974017123069
1445,8000.0,11.052631578947368,5,0.9858438246968845
1446,8000.0,11.052631578947368,6,0.9751735410774286
1447,8000.0,11.052631578947368,7,0.993091237677618
1448,8000.0,11.052631578947368,8,0.9878145592365403
1449,8000.0,11.052631578947368,9,0.9834243407764174
1450,8000.0,11.31578947368421,0,0.996981491120278
1451,8000.0,11.31578947368421,1,0.9850624548648929
1452,8000.0,11.31578947368421,2,1.0186780199616585
1453,8000.0,11.31578947368421,3,1.017946889935668
1454,8000.0,11.31578947368421,4,0.9617797759255297
1455,8000.0,11.31578947368421,5,0.9801656157477999
1456,8000.0,11.31578947368421,6,0.9771887165100515
1457,8000.0,11.31578947368421,7,0.9872996339085195
1458,8000.0,11.31578947368421,8,0.9820898796502358
1459,8000.0,11.31578947368421,9,1.010594776540143
1460,8000.0,11.578947368421053,0,1.002768364566742
1461,8000.0,11.578947368421053,1,0.9881308865940142
1462,8000.0,11.578947368421053,2,0.9945434814349411
1463,8000.0,11.578947368421053,3,0.9935669789842927
1464,8000.0,11.578947368421053,4,0.9724337085422324
1465,8000.0,11.578947368421053,5,0.9968317689943641
1466,8000.0,11.578947368421053,6,0.9889150187921079
1467,8000.0,11.578947368421053,7,0.9845251688506317
1468,8000.0,11.578947368421053,8,0.9961295529303913
1469,8000.0,11.578947368421053,9,0.9857187996719567
1470,8000.0,11.842105263157894,0,1.020532760102201
1471,8000.0,11.842105263157894,1,1.0208570354305482
1472,8000.0,11.842105263157894,2,0.961828486944354
1473,8000.0,11.842105263157894,3,0.9785083818204383
1474,8000.0,11.842105263157894,4,0.9774163407645723
1475,8000.0,11.842105263157894,5,0.9896080191854554
1476,8000.0,11.842105263157894,6,1.0041097280020803
1477,8000.0,11.842105263157894,7,1.0112942505857723
1478,8000.0,11.842105263157894,8,0.9904514282563598
1479,8000.0,11.842105263157894,9,0.9950079511715375
1480,8000.0,12.105263157894736,0,0.9868273631189127
1481,8000.0,12.105263157894736,1,0.9768201721122066
1482,8000.0,12.105263157894736,2,0.9956953622549635
1483,8000.0,12.105263157894736,3,0.9918069710040252
1484,8000.0,12.105263157894736,4,0.9844424708180699
1485,8000.0,12.105263157894736,5,0.9952704653822622
1486,8000.0,12.105263157894736,6,0.9798595122496091
1487,8000.0,12.105263157894736,7,1.0224261940054444
1488,8000.0,12.105263157894736,8,1.0256121934080136
1489,8000.0,12.105263157894736,9,0.9636076876770447
1490,8000.0,12.368421052631579,0,0.9800027932027418
1491,8000.0,12.368421052631579,1,0.9770111678165776
1492,8000.0,12.368421052631579,2,0.9879469983628824
1493,8000.0,12.368421052631579,3,0.9776951915345488
1494,8000.0,12.368421052631579,4,0.9823252729149282
1495,8000.0,12.368421052631579,5,0.9790884717417614
1496,8000.0,12.368421052631579,6,1.033770364245682
1497,8000.0,12.368421052631579,7,0.9820443565348749
1498,8000.0,12.368421052631579,8,0.9780830582862925
1499,8000.0,12.368421052631579,9,0.9901414673170096
1500,8000.0,12.631578947368421,0,0.9789044993288915
1501,8000.0,12.631578947368421,1,0.9965878485275257
1502,8000.0,12.631578947368421,2,1.0041318733369688
1503,8000.0,12.631578947368421,3,0.9711903914655141
1504,8000.0,12.631578947368421,4,1.0195459953262989
1505,8000.0,12.631578947368421,5,1.0238182151749329
1506,8000.0,12.631578947368421,6,0.9878200027584355
1507,8000.0,12.631578947368421,7,0.9524797706261382
1508,8000.0,12.631578947368421,8,0.9895932274006383
1509,8000.0,12.631578947368421,9,0.9788254153669058
1510,8000.0,12.894736842105264,0,0.9895080304124445
1511,8000.0,12.894736842105264,1,0.9974297878708163
1512,8000.0,12.894736842105264,2,0.9899512093206978
1513,8000.0,12.894736842105264,3,0.9959355683767555
1514,8000.0,12.894736842105264,4,0.9647501898928981
1515,8000.0,12.894736842105264,5,0.9635955986306004
1516,8000.0,12.894736842105264,6,1.0133019364664964
1517,8000.0,12.894736842105264,7,1.0074435137383138
1518,8000.0,12.894736842105264,8,1.0012530058429279
1519,8000.0,12.894736842105264,9,0.9626628417292242
1520,8000.0,13.157894736842106,0,0.9967326978499302
1521,8000.0,13.157894736842106,1,0.9581198232940131
1522,8000.0,13.157894736842106,2,0.9978912094402642
1523,8000.0,13.157894736842106,3,1.0058842986270489
1524,8000.0,13.157894736842106,4,0.9752614419194903
1525,8000.0,13.157894736842106,5,0.9886726751554971
1526,8000.0,13.157894736842106,6,1.0079646295496179
1527,8000.0,13.157894736842106,7,0.9697049858108814
1528,8000.0,13.157894736842106,8,0.991451821789827
1529,8000.0,13.157894736842106,9,0.9868284533539922
1530,8000.0,13.421052631578947,0,0.9867701574376755
1531,8000.0,13.421052631578947,1,1.002382350518163
1532,8000.0,13.421052631578947,2,0.9827049525432466
1533,8000.0,13.421052631578947,3,1.0243763220012456
1534,8000.0,13.421052631578947,4,1.025621362026084
1535,8000.0,13.421052631578947,5,0.9634757463107844
1536,8000.0,13.421052631578947,6,0.9830021808556968
1537,8000.0,13.421052631578947,7,0.9783255807129929
1538,8000.0,13.421052631578947,8,0.989928679172369
1539,8000.0,13.421052631578947,9,0.9793429581066119
1540,8000.0,13.68421052631579,0,0.966356944866376
1541,8000.0,13.68421052631579,1,1.0059813439719627
1542,8000.0,13.68421052631579,2,1.012865019909064
1543,8000.0,13.68421052631579,3,0.9608529975917034
1544,8000.0,13.68421052631579,4,0.9819828301513442
1545,8000.0,13.68421052631579,5,0.9755037475513367
1546,8000.0,13.68421052631579,6,0.9746658716731605
1547,8000.0,13.68421052631579,7,0.9744157495935067
1548,8000.0,13.68421052631579,8,0.9858960698892976
1549,8000.0,13.68421052631579,9,0.9992856808025855
1550,8000.0,13.947368421052632,0,0.9857066033235908
1551,8000.0,13.947368421052632,1,1.024240530346444
1552,8000.0,13.947368421052632,2,1.0236536143371726
1553,8000.0,13.947368421052632,3,0.9656545922245987
1554,8000.0,13.947368421052632,4,0.9797843459748162
1555,8000.0,13.947368421052632,5,0.9777895052571643
1556,8000.0,13.947368421052632,6,0.990568838097871
1557,8000.0,13.947368421052632,7,0.9789706126126047
1558,8000.0,13.947368421052632,8,0.96802303379589
1559,8000.0,13.947368421052632,9,1.005045166692584
1560,8000.0,14.210526315789473,0,1.0140061406919176
1561,8000.0,14.210526315789473,1,0.9609347741884666
1562,8000.0,14.210526315789473,2,0.9807790146250599
1563,8000.0,14.210526315789473,3,0.9789295683061388
1564,8000.0,14.210526315789473,4,0.9761785488260245
1565,8000.0,14.210526315789473,5,0.9786236631599112
1566,8000.0,14.210526315789473,6,0.9911521505356996
1567,8000.0,14.210526315789473,7,0.9974580659804461
1568,8000.0,14.210526315789473,8,0.9654450890902202
1569,8000.0,14.210526315789473,9,0.9631970158523134
1570,8000.0,14.473684210526315,0,1.0132089580090102
1571,8000.0,14.473684210526315,1,1.0067540590071673
1572,8000.0,14.473684210526315,2,1.0011314958388027
1573,8000.0,14.473684210526315,3,0.9633269871909892
1574,8000.0,14.473684210526315,4,0.9991223387082977
1575,8000.0,14.473684210526315,5,0.9563939235686965
1576,8000.0,14.473684210526315,6,0.996590331037324
1577,8000.0,14.473684210526315,7,1.0053172700225423
1578,8000.0,14.473684210526315,8,0.9756073794171581
1579,8000.0,14.473684210526315,9,0.9926952137213307
1580,8000.0,14.736842105263158,0,1.0130655996841411
1581,8000.0,14.736842105263158,1,0.9711898674088234
1582,8000.0,14.736842105263158,2,0.990592111174301
1583,8000.0,14.736842105263158,3,0.9882833035716938
1584,8000.0,14.736842105263158,4,0.9820244627309112
1585,8000.0,14.736842105263158,5,0.9976722968882655
1586,8000.0,14.736842105263158,6,1.0103872621019832
1587,8000.0,14.736842105263158,7,0.972379008424736
1588,8000.0,14.736842105263158,8,1.027426615448327
1589,8000.0,14.736842105263158,9,1.0231421594845187
1590,8000.0,15.0,0,0.9928287946114638
1591,8000.0,15.0,1,0.9501433275006416
1592,8000.0,15.0,2,0.9925039024079392
1593,8000.0,15.0,3,0.9794192887193757
1594,8000.0,15.0,4,0.9924340159222047
1595,8000.0,15.0,5,1.0012196876024473
1596,8000.0,15.0,6,0.9852784984213685
1597,8000.0,15.0,7,1.0012537366040042
1598,8000.0,15.0,8,0.9566344006120673
1599,8000.0,15.0,9,0.999571769653053
1600,9000.0,10.0,0,0.9779348252959591
1601,9000.0,10.0,1,0.9904367543413535
1602,9000.0,10.0,2,0.9989209668738067
1603,9000.0,10.0,3,0.9598145181707667
1604,9000.0,10.0,4,0.9727812890513573
1605,9000.0,10.0,5,0.9962110842761573
1606,9000.0,10.0,6,0.9793152456746784
1607,9000.0,10.0,7,1.0015708136973884
1608,9000.0,10.0,8,0.9991466853061389
1609,9000.0,10.0,9,0.9787607657896922
1610,9000.0,10.263157894736842,0,0.9764796528396688
1611,9000.0,10.263157894736842,1,0.9996081536380408
1612,9000.0,10.263157894736842,2,0.9734337377155656
1613,9000.0,10.263157894736842,3,0.9833050131744948
1614,9000.0,10.263157894736842,4,0.9597564876659689
1615,9000.0,10.263157894736842,5,0.9892102560682615
1616,9000.0,10.263157894736842,6,0.9780414229203389
1617,9000.0,10.263157894736842,7,0.985164415062328
1618,9000.0,10.263157894736842,8,0.9786964187368308
1619,9000.0,10.263157894736842,9,0.996087052578012
1620,9000.0,10.526315789473685,0,0.9871958209538965
1621,9000.0,10.526315789473685,1,0.9604058905826781
1622,9000.0,10.526315789473685,2,0.9720958554910469
1623,9000.0,10.526315789473685,3,0.9922176969401824
1624,9000.0,10.526315789473685,4,0.9840292292487645
1625,9000.0,10.526315789473685,5,0.9942138737506051
1626,9000.0,10.526315789473685,6,1.00077820943134
1627,9000.0,10.526315789473685,7,0.9812935251956149
1628,9000.0,10.526315789473685,8,0.9752349896539639
1629,9000.0,10.526315789473685,9,0.9980062677175218
1630,9000.0,10.789473684210526,0,0.9753389740542989
1631,9000.0,10.789473684210526,1,0.9860489539388733
1632,9000.0,10.789473684210526,2,0.9627412336881628
1633,9000.0,10.789473684210526,3,0.9910430903699909
1634,9000.0,10.789473684210526,4,0.9808865609915445
1635,9000.0,10.789473684210526,5,0.9868383813808111
1636,9000.0,10.789473684210526,6,0.9782129458011233
1637,9000.0,10.789473684210526,7,0.9972457326765573
1638,9000.0,10.789473684210526,8,0.9996757554885366
1639,9000.0,10.789473684210526,9,0.9814217761531933
1640,9000.0,11.052631578947368,0,0.9797520503826664
1641,9000.0,11.052631578947368,1,0.9954063913053831
1642,9000.0,11.052631578947368,2,0.9749277160698987
1643,9000.0,11.052631578947368,3,0.9851944903345639
1644,9000.0,11.052631578947368,4,0.9608861308379062
1645,9000.0,11.052631578947368,5,0.9891664786796388
1646,9000.0,11.052631578947368,6,0.9801383229965019
1647,9000.0,11.052631578947368,7,0.9892007528338054
1648,9000.0,11.052631578947368,8,0.9803478985221081
1649,9000.0,11.052631578947368,9,0.998296648634371
1650,9000.0,11.31578947368421,0,0.9973364427040677
1651,9000.0,11.31578947368421,1,0.9821086299873033
1652,9000.0,11.31578947368421,2,0.9997827749288504
1653,9000.0,11.31578947368421,3,1.0325092572055157
1654,9000.0,11.31578947368421,4,1.0455457035382318
1655,9000.0,11.31578947368421,5,0.9824459336664397
1656,9000.0,11.31578947368421,6,0.9829162437348962
1657,9000.0,11.31578947368421,7,1.0000383393769807
1658,9000.0,11.31578947368421,8,1.0012601444734113
1659,9000.0,11.31578947368421,9,0.9779639518965486
1660,9000.0,11.578947368421053,0,0.9750673674572222
1661,9000.0,11.578947368421053,1,0.9982438404526721
1662,9000.0,11.578947368421053,2,0.9786501202440344
1663,9000.0,11.578947368421053,3,0.9873116811788525
1664,9000.0,11.578947368421053,4,0.9608085882288071
1665,9000.0,11.578947368421053,5,0.9919939866218797
1666,9000.0,11.578947368421053,6,0.9849355443220836
1667,9000.0,11.578947368421053,7,0.9913445552263984
1668,9000.0,11.578947368421053,8,0.9829242572466393
1669,9000.0,11.578947368421053,9,0.9981454219175424
1670,9000.0,11.842105263157894,0,0.9984128440027515
1671,9000.0,11.842105263157894,1,0.9752369985264187
1672,9000.0,11.842105263157894,2,0.9995388499417324
1673,9000.0,11.842105263157894,3,1.0005736399646037
1674,9000.0,11.842105263157894,4,0.9726003404180447
1675,9000.0,11.842105263157894,5,0.9990410816688987
1676,9000.0,11.842105263157894,6,0.9812562667570964
1677,9000.0,11.842105263157894,7,1.0059553757956916
1678,9000.0,11.842105263157894,8,0.9986885604448392
1679,9000.0,11.842105263157894,9,0.9819010302555594
1680,9000.0,12.105263157894736,0,0.9765922764617976
1681,9000.0,12.105263157894736,1,0.9994687086091416
1682,9000.0,12.105263157894736,2,0.9791218980705856
1683,9000.0,12.105263157894736,3,0.9851083287324225
1684,9000.0,12.105263157894736,4,0.9613356208989788
1685,9000.0,12.105263157894736,5,0.9881672876768991
1686,9000.0,12.105263157894736,6,0.9805519562670788
1687,9000.0,12.105263157894736,7,0.9922726353048369
1688,9000.0,12.105263157894736,8,0.9871890921487746
1689,9000.0,12.105263157894736,9,0.9994020617753686
1690,9000.0,12.368421052631579,0,1.0036330926613837
1691,9000.0,12.368421052631579,1,0.9867293794854313
1692,9000.0,12.368421052631579,2,0.9834086621798112
1693,9000.0,12.368421052631579,3,1.0101123449904812
1694,9000.0,12.368421052631579,4,1.0037289587222087
1695,9000.0,12.368421052631579,5,0.9807655847833462
1696,9000.0,12.368421052631579,6,0.976594812523502
1697,9000.0,12.368421052631579,7,1.0007394139576304
1698,9000.0,12.368421052631579,8,0.9782049412168613
1699,9000.0,12.368421052631579,9,0.9839366902214316
1700,9000.0,12.631578947368421,0,0.9616190977808232
1701,9000.0,12.631578947368421,1,0.9881415843615305
1702,9000.0,12.631578947368421,2,0.9860293236820624
1703,9000.0,12.631578947368421,3,0.9889006472132004
1704,9000.0,12.631578947368421,4,0.9876790908884941
1705,9000.0,12.631578947368421,5,0.9989622280463328
1706,9000.0,12.631578947368421,6,0.9971987905624627
1707,9000.0,12.631578947368421,7,0.9900762131015408
1708,9000.0,12.631578947368421,8,1.0047591207132496
1709,9000.0,12.631578947368421,9,1.0307092043227057
1710,9000.0,12.894736842105264,0,0.9973578361863781
1711,9000.0,12.894736842105264,1,1.008033792165505
1712,9000.0,12.894736842105264,2,1.0156053425209295
1713,9000.0,12.894736842105264,3,0.9566047772555323
1714,9000.0,12.894736842105264,4,0.9747342546451647
1715,9000.0,12.894736842105264,5,1.0042138622925614
1716,9000.0,12.894736842105264,6,0.9992925477409835
1717,9000.0,12.894736842105264,7,0.9699220455463936
1718,9000.0,12.894736842105264,8,0.9752286203382473
1719,9000.0,12.894736842105264,9,0.9830829825486476
1720,9000.0,13.157894736842106,0,0.966774485030743
1721,9000.0,13.157894736842106,1,0.9850804818650358
1722,9000.0,13.157894736842106,2,0.9732580233692222
1723,9000.0,13.157894736842106,3,0.988825356740145
1724,9000.0,13.157894736842106,4,0.99460574122684
1725,9000.0,13.157894736842106,5,0.9760118192852095
1726,9000.0,13.157894736842106,6,0.9832337495306228
1727,9000.0,13.157894736842106,7,0.9684866734287638
1728,9000.0,13.157894736842106,8,0.97846753764
1729,9000.0,13.157894736842106,9,0.9770932758445777
1730,9000.0,13.421052631578947,0,0.9758647645104025
1731,9000.0,13.421052631578947,1,1.000689942402103
1732,9000.0,13.421052631578947,2,1.0223888854005394
1733,9000.0,13.421052631578947,3,0.9961215972814296
1734,9000.0,13.421052631578947,4,0.963816140590595
1735,9000.0,13.421052631578947,5,0.9849457115089904
1736,9000.0,13.421052631578947,6,0.99705014206645
1737,9000.0,13.421052631578947,7,0.9909832235977873
1738,9000.0,13.421052631578947,8,0.9887130736150879
1739,9000.0,13.421052631578947,9,0.9820653368989062
1740,9000.0,13.68421052631579,0,0.9863858530622615
1741,9000.0,13.68421052631579,1,0.9637452751929946
1742,9000.0,13.68421052631579,2,0.9879865046084241
1743,9000.0,13.68421052631579,3,0.973214968247343
1744,9000.0,13.68421052631579,4,0.9968914847981056
1745,9000.0,13.68421052631579,5,0.9902206223242496
1746,9000.0,13.68421052631579,6,0.9949449719958251
1747,9000.0,13.68421052631579,7,0.9913965490446911
1748,9000.0,13.68421052631579,8,0.9836412312845298
1749,9000.0,13.68421052631579,9,0.9903232169592487
1750,9000.0,13.947368421052632,0,0.9911457410862062
1751,9000.0,13.947368421052632,1,0.9796096486302095
1752,9000.0,13.947368421052632,2,0.9791488453550402
1753,9000.0,13.947368421052632,3,0.9912584708551376
1754,9000.0,13.947368421052632,4,0.9995165037062732
1755,9000.0,13.947368421052632,5,1.0024002158091359
1756,9000.0,13.947368421052632,6,0.9808011399017129
1757,9000.0,13.947368421052632,7,0.9899646191227698
1758,9000.0,13.947368421052632,8,1.048082424240146
1759,9000.0,13.947368421052632,9,1.065646248001599
1760,9000.0,14.210526315789473,0,0.9756620311805663
1761,9000.0,14.210526315789473,1,0.9887483203832873
1762,9000.0,14.210526315789473,2,0.9936307127412611
1763,9000.0,14.210526315789473,3,0.9663598258169163
1764,9000.0,14.210526315789473,4,1.0025772550607912
1765,9000.0,14.210526315789473,5,0.9824871353031329
1766,9000.0,14.210526315789473,6,0.9776933966652593
1767,9000.0,14.210526315789473,7,0.9989135452508939
1768,9000.0,14.210526315789473,8,0.9788024127865553
1769,9000.0,14.210526315789473,9,0.9872576548268726
1770,9000.0,14.473684210526315,0,0.9625246976220088
1771,9000.0,14.473684210526315,1,0.9937385563034482
1772,9000.0,14.473684210526315,2,0.9827599009150377
1773,9000.0,14.473684210526315,3,0.9884360699803806
1774,9000.0,14.473684210526315,4,0.9863838689829191
1775,9000.0,14.473684210526315,5,1.000713468763982
1776,9000.0,14.473684210526315,6,1.005503160807386
1777,9000.0,14.473684210526315,7,0.9857156735654905
1778,9000.0,14.473684210526315,8,1.0014094264199558
1779,9000.0,14.473684210526315,9,1.0210919807317347
1780,9000.0,14.736842105263158,0,1.053763046327858
1781,9000.0,14.736842105263158,1,0.9888653208478702
1782,9000.0,14.736842105263158,2,1.0022896594500086
1783,9000.0,14.736842105263158,3,0.9805910570475631
1784,9000.0,14.736842105263158,4,0.9806682312451614
1785,9000.0,14.736842105263158,5,0.9996736637250669
1786,9000.0,14.736842105263158,6,0.9788502461074723
1787,9000.0,14.736842105263158,7,0.9883473181651135
1788,9000.0,14.736842105263158,8,0.9617915530821556
1789,9000.0,14.736842105263158,9,0.9944615050956235
1790,9000.0,15.0,0,0.9857729943678858
1791,9000.0,15.0,1,0.9907005238927147
1792,9000.0,15.0,2,0.9904435784090808
1793,9000.0,15.0,3,1.0006207503046827
1794,9000.0,15.0,4,1.0017604837004461
1795,9000.0,15.0,5,0.9929498049231926
1796,9000.0,15.0,6,1.0025561000010288
1797,9000.0,15.0,7,1.0225948186870641
1798,9000.0,15.0,8,1.0594724317479336
1799,9000.0,15.0,9,0.9858709492500164
1800,10000.0,10.0,0,0.9943260374133133
1801,10000.0,10.0,1,0.9732285686276357
1802,10000.0,10.0,2,0.9641418667805102
1803,10000.0,10.0,3,0.978514603338671
1804,10000.0,10.0,4,0.9855445110252119
1805,10000.0,10.0,5,0.9851170075293463
1806,10000.0,10.0,6,0.9883199875757301
1807,10000.0,10.0,7,0.9764530067362526
1808,10000.0,10.0,8,0.9794717083154467
1809,10000.0,10.0,9,0.9991929264946127
1810,10000.0,10.263157894736842,0,0.9941996649334303
1811,10000.0,10.263157894736842,1,1.016228959030437
1812,10000.0,10.263157894736842,2,0.9744611316645759
1813,10000.0,10.263157894736842,3,1.0017333071554297
1814,10000.0,10.263157894736842,4,0.9877189137473179
1815,10000.0,10.263157894736842,5,0.9949457881997383
1816,10000.0,10.263157894736842,6,1.0091208948059565
1817,10000.0,10.263157894736842,7,0.9852610958064271
1818,10000.0,10.263157894736842,8,0.9795799937454803
1819,10000.0,10.263157894736842,9,0.974662526502399
1820,10000.0,10.526315789473685,0,0.9946284566452864
1821,10000.0,10.526315789473685,1,0.9977183566891041
1822,10000.0,10.526315789473685,2,1.0022679304891728
1823,10000.0,10.526315789473685,3,0.9431485914472633
1824,10000.0,10.526315789473685,4,0.9818921424002822
1825,10000.0,10.526315789473685,5,0.9708513300727992
1826,10000.0,10.526315789473685,6,1.005470813129993
1827,10000.0,10.526315789473685,7,1.1044168855598346
1828,10000.0,10.526315789473685,8,0.9583143094492604
1829,10000.0,10.526315789473685,9,0.9982517950600202
1830,10000.0,10.789473684210526,0,0.9681195430552134
1831,10000.0,10.789473684210526,1,1.0092157020444958
1832,10000.0,10.789473684210526,2,0.9954514030728798
1833,10000.0,10.789473684210526,3,0.9802153763154585
1834,10000.0,10.789473684210526,4,0.9945062482944957
1835,10000.0,10.789473684210526,5,0.9654247937617126
1836,10000.0,10.789473684210526,6,0.9789826234173292
1837,10000.0,10.789473684210526,7,0.9877542071435521
1838,10000.0,10.789473684210526,8,0.9923290883241327
1839,10000.0,10.789473684210526,9,0.9984036352302668
1840,10000.0,11.052631578947368,0,1.0037817140131626
1841,10000.0,11.052631578947368,1,0.9434745659081901
1842,10000.0,11.052631578947368,2,0.9836450787129972
1843,10000.0,11.052631578947368,3,0.9664968940635295
1844,10000.0,11.052631578947368,4,1.0090863120563562
1845,10000.0,11.052631578947368,5,1.0593234338670772
1846,10000.0,11.052631578947368,6,0.9591247285956143
1847,10000.0,11.052631578947368,7,0.9996901995633447
1848,10000.0,11.052631578947368,8,0.9654382659997575
1849,10000.0,11.052631578947368,9,1.0033389724567388
1850,10000.0,11.31578947368421,0,0.9980385659412997
1851,10000.0,11.31578947368421,1,0.9801185132475291
1852,10000.0,11.31578947368421,2,0.9960682349459076
1853,10000.0,11.31578947368421,3,0.9678769839009038
1854,10000.0,11.31578947368421,4,1.011529459349551
1855,10000.0,11.31578947368421,5,0.9854650294789034
1856,10000.0,11.31578947368421,6,0.9891748207908643
1857,10000.0,11.31578947368421,7,0.997460019032071
1858,10000.0,11.31578947368421,8,0.9820424026014191
1859,10000.0,11.31578947368421,9,0.9982836046101703
1860,10000.0,11.578947368421053,0,0.9807470968809969
1861,10000.0,11.578947368421053,1,0.9865822907883883
1862,10000.0,11.578947368421053,2,0.9792852417709896
1863,10000.0,11.578947368421053,3,0.9845456205994063
1864,10000.0,11.578947368421053,4,0.990019763768512
1865,10000.0,11.578947368421053,5,0.9619274190480468
1866,10000.0,11.578947368421053,6,1.0001628228366048
1867,10000.0,11.578947368421053,7,0.9731242038954045
1868,10000.0,11.578947368421053,8,0.9881237818936778
1869,10000.0,11.578947368421053,9,0.9674541319663706
1870,10000.0,11.842105263157894,0,1.0000478229168963
1871,10000.0,11.842105263157894,1,0.9896229144261304
1872,10000.0,11.842105263157894,2,0.9898127847551725
1873,10000.0,11.842105263157894,3,0.9939974701313212
1874,10000.0,11.842105263157894,4,0.9947775287076237
1875,10000.0,11.842105263157894,5,0.9702664842251352
1876,10000.0,11.842105263157894,6,0.9725388442702901
1877,10000.0,11.842105263157894,7,0.9985879682629334
1878,10000.0,11.842105263157894,8,0.9906625353067741
1879,10000.0,11.842105263157894,9,0.9790099634540066
1880,10000.0,12.105263157894736,0,0.9764101681340369
1881,10000.0,12.105263157894736,1,1.0008633711100503
1882,10000.0,12.105263157894736,2,1.0070166622481387
1883,10000.0,12.105263157894736,3,1.0623300249289187
1884,10000.0,12.105263157894736,4,0.9580783302808833
1885,10000.0,12.105263157894736,5,0.9874745370628345
1886,10000.0,12.105263157894736,6,0.9696035794657665
1887,10000.0,12.105263157894736,7,0.9904010886976707
1888,10000.0,12.105263157894736,8,1.0098595014602805
1889,10000.0,12.105263157894736,9,0.9873405062785325
1890,10000.0,12.368421052631579,0,0.986048012353947
1891,10000.0,12.368421052631579,1,0.9960492736043027
1892,10000.0,12.368421052631579,2,0.9822379421596578
1893,10000.0,12.368421052631579,3,1.003932130896266
1894,10000.0,12.368421052631579,4,0.9993460083263564
1895,10000.0,12.368421052631579,5,0.9801625326336617
1896,10000.0,12.368421052631579,6,0.9703413468756381
1897,10000.0,12.368421052631579,7,0.9847242426921092
1898,10000.0,12.368421052631579,8,0.996973219323597
1899,10000.0,12.368421052631579,9,0.9708895322880706
1900,10000.0,12.631578947368421,0,0.9803189703497948
1901,10000.0,12.631578947368421,1,1.0016515810407356
1902,10000.0,12.631578947368421,2,0.9971302654067129
1903,10000.0,12.631578947368421,3,0.9931179629260127
1904,10000.0,12.631578947368421,4,0.9764717903762394
1905,10000.0,12.631578947368421,5,0.987645606525615
1906,10000.0,12.631578947368421,6,0.9829682430982736
1907,10000.0,12.631578947368421,7,0.9975015941132593
1908,10000.0,12.631578947368421,8,0.9922161646312323
1909,10000.0,12.631578947368421,9,0.9942634193247373
1910,10000.0,12.894736842105264,0,0.9942496405719924
1911,10000.0,12.894736842105264,1,0.973062377915349
1912,10000.0,12.894736842105264,2,0.9755966726033518
1913,10000.0,12.894736842105264,3,1.0018036252326983
1914,10000.0,12.894736842105264,4,0.9943230724557598
1915,10000.0,12.894736842105264,5,0.9803482741329246
1916,10000.0,12.894736842105264,6,0.9782446053849113
1917,10000.0,12.894736842105264,7,1.0035061818767808
1918,10000.0,12.894736842105264,8,1.0040836925712766
1919,10000.0,12.894736842105264,9,1.1370548292508111
1920,10000.0,13.157894736842106,0,0.9584795416984206
1921,10000.0,13.157894736842106,1,0.9917545854956664
1922,10000.0,13.157894736842106,2,0.971012001636467
1923,10000.0,13.157894736842106,3,0.992376672392897
1924,10000.0,13.157894736842106,4,1.010394333485899
1925,10000.0,13.157894736842106,5,0.9871081537691063
1926,10000.0,13.157894736842106,6,0.9901043781075806
1927,10000.0,13.157894736842106,7,0.9949764090596876
1928,10000.0,13.157894736842106,8,1.0007898209561736
1929,10000.0,13.157894736842106,9,0.9735253077835962
1930,10000.0,13.421052631578947,0,0.9755745433554179
1931,10000.0,13.421052631578947,1,1.0017373245141337
1932,10000.0,13.421052631578947,2,0.9931528032294971
1933,10000.0,13.421052631578947,3,0.9806915905021066
1934,10000.0,13.421052631578947,4,0.9772557360496414
1935,10000.0,13.421052631578947,5,0.9992725149614964
1936,10000.0,13.421052631578947,6,1.0067641848882383
1937,10000.0,13.421052631578947,7,1.1298361128792223
1938,10000.0,13.421052631578947,8,0.9587791599433065
1939,10000.0,13.421052631578947,9,0.9875717208367348
1940,10000.0,13.68421052631579,0,0.9746135078106768
1941,10000.0,13.68421052631579,1,0.9927781457175519
1942,10000.0,13.68421052631579,2,1.0109935681818532
1943,10000.0,13.68421052631579,3,0.9879053221642685
1944,10000.0,13.68421052631579,4,0.9814806023498466
1945,10000.0,13.68421052631579,5,0.9829474843368373
1946,10000.0,13.68421052631579,6,1.01168640466017
1947,10000.0,13.68421052631579,7,1.000695924660062
1948,10000.0,13.68421052631579,8,0.9738141953521984
1949,10000.0,13.68421052631579,9,0.9844058552555446
1950,10000.0,13.947368421052632,0,0.9873150040704619
1951,10000.0,13.947368421052632,1,0.9976930500295407
1952,10000.0,13.947368421052632,2,1.0046919839721924
1953,10000.0,13.947368421052632,3,1.0054799649893038
1954,10000.0,13.947368421052632,4,0.9448482421458402
1955,10000.0,13.947368421052632,5,0.9852663209984212
1956,10000.0,13.947368421052632,6,0.9716103093008167
1957,10000.0,13.947368421052632,7,1.0237718935072726
1958,10000.0,13.947368421052632,8,1.1192889304233011
1959,10000.0,13.947368421052632,9,0.9627707290400863
1960,10000.0,14.210526315789473,0,1.006372042596917
1961,10000.0,14.210526315789473,1,0.9685109571370788
1962,10000.0,14.210526315789473,2,0.9721626371803047
1963,10000.0,14.210526315789473,3,0.9793024967432932
1964,10000.0,14.210526315789473,4,0.9845795322909204
1965,10000.0,14.210526315789473,5,0.9986396577971441
1966,10000.0,14.210526315789473,6,1.0070590338344807
1967,10000.0,14.210526315789473,7,1.0069298722308746
1968,10000.0,14.210526315789473,8,0.9450820643473095
1969,10000.0,14.210526315789473,9,0.9852362105113198
1970,10000.0,14.473684210526315,0,0.9721202475260079
1971,10000.0,14.473684210526315,1,1.0232073052154094
1972,10000.0,14.473684210526315,2,1.0974881394025673
1973,10000.0,14.473684210526315,3,0.9614183443005201
1974,10000.0,14.473684210526315,4,1.002381187723834
1975,10000.0,14.473684210526315,5,0.9689404891718179
1976,10000.0,14.473684210526315,6,1.013701170594534
1977,10000.0,14.473684210526315,7,0.9995034920831758
1978,10000.0,14.473684210526315,8,0.9859956730353593
1979,10000.0,14.473684210526315,9,0.9981783523121038
1980,10000.0,14.736842105263158,0,0.9869145844023048
1981,10000.0,14.736842105263158,1,0.9986033888705892
1982,10000.0,14.736842105263158,2,0.9820339536348976
1983,10000.0,14.736842105263158,3,1.0053115533054469
1984,10000.0,14.736842105263158,4,1.0009947174078444
1985,10000.0,14.736842105263158,5,0.9762901280268375
1986,10000.0,14.736842105263158,6,0.9734827249132814
1987,10000.0,14.736842105263158,7,0.9859736766873294
1988,10000.0,14.736842105263158,8,0.993957265151748
1989,10000.0,14.736842105263158,9,0.9755395624910884
1990,10000.0,15.0,0,0.9823086678075614
1991,10000.0,15.0,1,1.0043545460007675
1992,10000.0,15.0,2,1.000096954198036
1993,10000.0,15.0,3,0.995697518757328
1994,10000.0,15.0,4,0.9827165490822244
1995,10000.0,15.0,5,0.9903856414142233
1996,10000.0,15.0,6,0.988651186650056
1997,10000.0,15.0,7,1.0013432921322434
1998,10000.0,15.0,8,0.9850511153661288
1999,10000.0,15.0,9,0.9863116868520071
